ID,rawValue
0,9678080.0
0,9678720.0
0,9678520.0
0,9677900.0
0,9681540.0
0,9696160.0
0,9716250.0
0,9727050.0
0,9722120.0
0,9721440.0
0,9722290.0
0,9734910.0
0,9750870.0
0,9764830.0
0,9782910.0
0,9814930.0
0,9848950.0
0,9854810.0
0,9806340.0
0,9717320.0
0,9627620.0
0,9576680.0
0,9566180.0
0,9593530.0
0,9646560.0
0,9713440.0
0,9774690.0
0,9812260.0
0,9807610.0
0,9764410.0
0,9710260.0
0,9656010.0
0,9601070.0
0,9554730.0
0,9514200.0
0,9499180.0
0,9526830.0
0,9577060.0
0,9628550.0
0,9672880.0
0,9709850.0
0,9729020.0
0,9730370.0
0,9733700.0
0,9749850.0
0,9791530.0
0,9851190.0
0,9897750.0
0,9881960.0
0,9832590.0
0,9810610.0
0,9841470.0
0,9897600.0
0,9941190.0
0,9962640.0
0,9977360.0
0,9979200.0
0,9950820.0
0,9916080.0
0,9894220.0
0,9891200.0
0,9898280.0
0,9901810.0
0,9894680.0
0,9875150.0
0,9848410.0
0,9817680.0
0,9782960.0
0,9748780.0
0,9721130.0
0,9702170.0
0,9694230.0
0,9696080.0
0,9705580.0
0,9719180.0
0,9734830.0
0,9748980.0
0,9758460.0
0,9767320.0
0,9779880.0
0,9797940.0
0,9820470.0
0,9844560.0
0,9865550.0
0,9881860.0
0,9894430.0
0,9902510.0
0,9906500.0
0,9908520.0
0,9909760.0
0,9910650.0
1,9803060.0
1,9812380.0
1,9813390.0
1,9798850.0
1,9774380.0
1,9750710.0
1,9735050.0
1,9736160.0
1,9763860.0
1,9813170.0
1,9868180.0
1,9906840.0
1,9942770.0
1,9969830.0
1,9983040.0
1,9985930.0
1,9979920.0
1,9949470.0
1,9891760.0
1,9829960.0
1,9784030.0
1,9752270.0
1,9737960.0
1,9741410.0
1,9744790.0
1,9733700.0
1,9715500.0
1,9724170.0
1,9753890.0
1,9785660.0
1,9793940.0
1,9770440.0
1,9745230.0
1,9744960.0
1,9781240.0
1,9841440.0
1,9899780.0
1,9926740.0
1,9919130.0
1,9892260.0
1,9855040.0
1,9864780.0
1,9898150.0
1,9918240.0
1,9925050.0
1,9948290.0
1,9960580.0
1,9963180.0
1,9957440.0
1,9944740.0
1,9940220.0
1,9940530.0
1,9944200.0
1,9960620.0
1,9991420.0
1,10011800.0
1,10005000.0
1,9985650.0
1,9959720.0
1,9936820.0
1,9933460.0
1,9946630.0
1,9969480.0
1,10002200.0
1,10030700.0
1,10049200.0
1,10060400.0
1,10069500.0
1,10076700.0
1,10074900.0
1,10064900.0
1,10058400.0
1,10049900.0
1,10047500.0
1,10043900.0
1,10045000.0
1,10042500.0
1,10030500.0
1,10017300.0
1,10010400.0
1,9996730.0
1,9980730.0
1,9974440.0
1,9972520.0
1,9970400.0
1,9971670.0
1,9976110.0
1,9982510.0
1,9988640.0
1,9987470.0
1,9971980.0
1,9950650.0
1,9935480.0
1,9927700.0
1,9928870.0
1,9929510.0
1,9923700.0
1,9914180.0
1,9901320.0
1,9886440.0
1,9873080.0
1,9860930.0
1,9851270.0
1,9843150.0
1,9829640.0
1,9810360.0
0,10136900.0
0,10137400.0
0,10137700.0
0,10136400.0
0,10135200.0
0,10135700.0
0,10135800.0
0,10139500.0
0,10156400.0
0,10171600.0
0,10164500.0
0,10162800.0
0,10197700.0
0,10254100.0
0,10292300.0
0,10294300.0
0,10315100.0
0,10387100.0
0,10423800.0
0,10446000.0
0,10470900.0
0,10497100.0
0,10517800.0
0,10510600.0
0,10497100.0
0,10482700.0
0,10452600.0
0,10423300.0
0,10389300.0
0,10348900.0
0,10311300.0
0,10286700.0
0,10288000.0
0,10285100.0
0,10276200.0
0,10268900.0
0,10265000.0
0,10265900.0
0,10271700.0
0,10281300.0
0,10298500.0
0,10323000.0
0,10343800.0
0,10360200.0
0,10367200.0
0,10361400.0
0,10342500.0
0,10321700.0
0,10315100.0
0,10311600.0
0,10307100.0
0,10295300.0
0,10269800.0
0,10232500.0
0,10192300.0
0,10153800.0
0,10120100.0
0,10083600.0
0,10044300.0
0,10010500.0
0,9980580.0
0,9946630.0
0,9918620.0
0,9899970.0
0,9881950.0
0,9865470.0
0,9855770.0
0,9856320.0
0,9862520.0
0,9861940.0
0,9856970.0
0,9856570.0
0,9862160.0
0,9874480.0
0,9897660.0
0,9928420.0
0,9958970.0
0,9985620.0
0,10020000.0
0,10052400.0
0,10074200.0
0,10088300.0
0,10100500.0
0,10112700.0
0,10124700.0
0,10137100.0
0,10146100.0
0,10149400.0
0,10151600.0
0,10150200.0
0,10148700.0
0,10154500.0
0,10162800.0
0,10166500.0
0,10167300.0
0,10166600.0
0,10159900.0
0,10151400.0
0,10142400.0
0,10138400.0
0,10141000.0
0,10145800.0
0,10149600.0
0,10153600.0
0,10157400.0
0,10157700.0
0,10155900.0
0,10152900.0
0,10149500.0
0,10150300.0
0,10154500.0
0,10158400.0
0,10161600.0
0,10164700.0
0,10166100.0
0,10165800.0
0,10161800.0
0,10153200.0
0,10144400.0
0,10138200.0
0,10135400.0
0,10133900.0
0,10130400.0
0,10128500.0
0,10128300.0
0,10130100.0
0,10131500.0
0,10135200.0
0,10139500.0
0,10142400.0
0,10145000.0
0,10145300.0
0,10142700.0
0,10140100.0
0,10135000.0
0,10128500.0
0,10123200.0
0,10120900.0
0,10117600.0
0,10112700.0
0,10111200.0
0,10114900.0
0,10120600.0
0,10128900.0
0,10139400.0
0,10149100.0
0,10156200.0
0,10160800.0
0,10162500.0
0,10161900.0
0,10161800.0
0,10160700.0
0,10158600.0
0,10157400.0
0,10157300.0
0,10156700.0
0,10156200.0
0,10158300.0
0,10160700.0
0,10161000.0
0,10162600.0
0,10165200.0
0,10165700.0
0,10167100.0
0,10167900.0
0,10167500.0
0,10165700.0
0,10160800.0
0,10155500.0
0,10150600.0
0,10145200.0
0,10141800.0
0,10140000.0
0,10140700.0
0,10142100.0
0,10142700.0
0,10142800.0
0,10140100.0
0,10135000.0
0,10131600.0
0,10129300.0
0,10125600.0
0,10125400.0
0,10128000.0
0,10128000.0
0,10127700.0
0,10129500.0
0,10130700.0
0,10129500.0
0,10128400.0
0,10128800.0
0,10126100.0
0,10123400.0
0,10123600.0
0,10123300.0
0,10122500.0
0,10121200.0
0,10121000.0
0,10121100.0
0,10119700.0
0,10119900.0
0,10121300.0
0,10121100.0
0,10122300.0
0,10124700.0
0,10125900.0
0,10125900.0
0,10126300.0
0,10127800.0
0,10128900.0
0,10129200.0
0,10129100.0
0,10130200.0
0,10132200.0
0,10134100.0
0,10135700.0
0,10138900.0
0,10140100.0
0,10140200.0
0,10140200.0
0,10139600.0
0,10140800.0
0,10141200.0
0,10142600.0
0,10143900.0
0,10146400.0
0,10148000.0
0,10147600.0
0,10147300.0
0,10146800.0
0,10145400.0
0,10144900.0
0,10146100.0
0,10146500.0
0,10146300.0
0,10147100.0
0,10147100.0
0,10146100.0
0,10144900.0
0,10143000.0
0,10143200.0
0,10144300.0
0,10145200.0
0,10145600.0
0,10146700.0
0,10146700.0
0,10145200.0
0,10143800.0
0,10142000.0
0,10141400.0
0,10140800.0
0,10138600.0
0,10138400.0
0,10138300.0
0,10137100.0
0,10137300.0
0,10138100.0
0,10137700.0
0,10137600.0
0,10138800.0
0,10139500.0
0,10139600.0
0,10140000.0
0,10138500.0
0,10137200.0
0,10135900.0
0,10133900.0
0,10133600.0
0,10132500.0
0,10131300.0
0,10131200.0
0,10131300.0
0,10131100.0
0,10131400.0
0,10133200.0
0,10133600.0
0,10133600.0
0,10133800.0
0,10134400.0
0,10135900.0
0,10135600.0
0,10136300.0
0,10139300.0
0,10139700.0
0,10140600.0
0,10141300.0
0,10141800.0
0,10143400.0
0,10145000.0
0,10145400.0
0,10145800.0
0,10145800.0
0,10145800.0
0,10147600.0
0,10148900.0
0,10149000.0
0,10149600.0
0,10151000.0
0,10151000.0
0,10151900.0
0,10153200.0
0,10152500.0
0,10152700.0
0,10152400.0
0,10151700.0
0,10151600.0
0,10151700.0
0,10151000.0
0,10151700.0
0,10151200.0
0,10150200.0
0,10151900.0
0,10150400.0
0,10149100.0
0,10149800.0
0,10150400.0
0,10149300.0
0,10148400.0
0,10148800.0
0,10148200.0
0,10147500.0
0,10147900.0
0,10148000.0
0,10147100.0
0,10147000.0
0,10148100.0
0,10147600.0
0,10146400.0
0,10146400.0
0,10145200.0
0,10144700.0
0,10144700.0
0,10143200.0
0,10143500.0
0,10143000.0
0,10142200.0
0,10142800.0
0,10141900.0
0,10140000.0
0,10140500.0
0,10140500.0
0,10138800.0
0,10139700.0
0,10140600.0
0,10139000.0
0,10138700.0
0,8907120.0
0,8907060.0
0,8906510.0
0,8907090.0
0,8907140.0
0,8902490.0
0,8895020.0
0,8887360.0
0,8867980.0
0,8833250.0
0,8804940.0
0,8811240.0
0,8820090.0
0,8820640.0
0,8833210.0
0,8845490.0
0,8845200.0
0,8840130.0
0,8813420.0
0,8795290.0
0,8799440.0
0,8817940.0
0,8826100.0
0,8832120.0
0,8847720.0
0,8861210.0
0,8869820.0
0,8875280.0
0,8877690.0
0,8891140.0
0,8898470.0
0,8899180.0
0,8905990.0
0,8930950.0
0,8933630.0
0,8915120.0
0,8903520.0
0,8890800.0
0,8869180.0
0,8853460.0
0,8844820.0
0,8838370.0
0,8823450.0
0,8829360.0
0,8841180.0
0,8833880.0
0,8844110.0
0,8882960.0
0,8913630.0
0,8907760.0
0,8899290.0
0,8890680.0
0,8866030.0
0,8840040.0
0,8824460.0
0,8815510.0
0,8813570.0
0,8808880.0
0,8802510.0
0,8804940.0
0,8815730.0
0,8827930.0
0,8835520.0
0,8838980.0
0,8836800.0
0,8819250.0
0,8805220.0
0,8806020.0
0,8814830.0
0,8817180.0
0,8813570.0
0,8811560.0
0,8807950.0
0,8804840.0
0,8801640.0
0,8801470.0
0,8800660.0
0,8799310.0
0,8801960.0
0,8804720.0
0,8806930.0
0,8809810.0
0,8811400.0
0,8813280.0
0,8815450.0
0,8818170.0
0,8821660.0
0,8825000.0
0,8829590.0
0,8834530.0
0,8839150.0
0,8845090.0
0,8853210.0
0,8859540.0
0,8865540.0
0,8872410.0
0,8877060.0
0,8880380.0
0,8882420.0
0,8883940.0
0,8885310.0
0,8885950.0
0,8885130.0
0,8882270.0
0,8881280.0
0,8880480.0
0,8878380.0
0,8873750.0
0,8872860.0
0,8867850.0
0,8860860.0
0,8855460.0
0,8852720.0
0,8847760.0
0,8843850.0
0,8843240.0
0,8843300.0
0,8842450.0
0,8843750.0
0,8844000.0
0,8840820.0
0,8837320.0
0,8836140.0
0,8834410.0
0,8831730.0
0,8829530.0
0,8828930.0
0,8828560.0
0,8828140.0
0,8828040.0
0,8828560.0
0,8830620.0
0,8832030.0
0,8834190.0
0,8837040.0
0,8839210.0
0,8840480.0
0,8842940.0
0,8845680.0
0,8847090.0
0,8847200.0
0,8847340.0
0,8848370.0
0,8848430.0
0,8846990.0
0,8846780.0
0,8847380.0
0,8847180.0
0,8846480.0
0,8846700.0
0,8846960.0
0,8845740.0
0,8844430.0
0,8842820.0
0,8841750.0
0,8839980.0
0,8838140.0
0,8837370.0
0,8836650.0
0,8835750.0
0,8835920.0
0,8835600.0
0,8835360.0
0,8835270.0
0,8835580.0
0,8836580.0
0,8836300.0
0,8836410.0
0,8837940.0
0,8838020.0
0,8837350.0
0,8837260.0
0,8835510.0
0,8834410.0
0,8834020.0
0,8833340.0
0,8833710.0
0,8833030.0
0,8829600.0
0,8827970.0
0,8829900.0
0,8833600.0
0,8837430.0
0,8840920.0
0,8842660.0
0,8843730.0
0,8845020.0
0,8843370.0
0,8841300.0
0,8840060.0
0,8839330.0
0,8840510.0
0,8843900.0
0,8846680.0
0,8847590.0
0,8850390.0
0,8853470.0
0,8854040.0
0,8853710.0
0,8854100.0
0,8854130.0
0,8854560.0
0,8854960.0
0,8855470.0
0,8856510.0
0,8857150.0
0,8859960.0
0,8861380.0
0,8861190.0
0,8860600.0
0,8860230.0
0,8860900.0
0,8860970.0
0,8860720.0
0,8861360.0
0,8861740.0
0,8862040.0
0,8861370.0
0,8861460.0
0,8862100.0
0,8861870.0
0,8861410.0
0,8861750.0
0,8862330.0
0,8862170.0
0,8862200.0
0,8862670.0
0,8860960.0
0,8859650.0
0,8859010.0
0,8858060.0
0,8857920.0
0,8855790.0
0,8855170.0
0,8856320.0
0,8856180.0
0,8855940.0
0,8855980.0
0,8855800.0
0,8853720.0
0,8852940.0
0,8852070.0
0,8851080.0
0,8850580.0
0,8850110.0
0,8849550.0
0,8849120.0
0,8848950.0
0,8847960.0
0,8847470.0
0,8847220.0
0,8845040.0
0,8844330.0
0,8845590.0
0,8844630.0
0,8843930.0
0,8845380.0
0,8845550.0
0,8844440.0
0,8844300.0
0,8845180.0
0,8845370.0
0,8845490.0
0,8844470.0
0,8843530.0
0,8844730.0
0,8844810.0
0,8844090.0
0,8843890.0
0,8845240.0
0,8846750.0
0,8847430.0
0,8847610.0
0,8848900.0
0,8850720.0
0,8851520.0
0,8852030.0
0,8853110.0
0,8853600.0
0,8853840.0
0,8854170.0
0,8855440.0
0,8856920.0
0,8856770.0
0,8857100.0
0,8858560.0
0,8858840.0
0,8859710.0
0,8861580.0
0,8862090.0
0,8862920.0
0,8863560.0
0,8863640.0
0,8862990.0
0,8860990.0
0,8860870.0
0,8861900.0
0,8861880.0
0,8862080.0
0,8862470.0
0,8862330.0
2,9624120.0
2,9624470.0
2,9624070.0
2,9624200.0
2,9624530.0
2,9624360.0
2,9623100.0
2,9623230.0
2,9623930.0
2,9624240.0
2,9623990.0
2,9623240.0
2,9623420.0
2,9624290.0
2,9622950.0
2,9622940.0
2,9624370.0
2,9624220.0
2,9623310.0
2,9623770.0
2,9624720.0
2,9624160.0
2,9623750.0
2,9624180.0
2,9624890.0
2,9624420.0
2,9623670.0
2,9623980.0
2,9625060.0
2,9625470.0
2,9624330.0
2,9623940.0
2,9624480.0
2,9623860.0
2,9623640.0
2,9624870.0
2,9624820.0
2,9623640.0
2,9624360.0
2,9624610.0
2,9623850.0
2,9623600.0
2,9623650.0
2,9622700.0
2,9623110.0
2,9624280.0
2,9624460.0
2,9622770.0
2,9622440.0
2,9622690.0
2,9621760.0
2,9622210.0
2,9622320.0
2,9622230.0
2,9622570.0
2,9621990.0
2,9621460.0
2,9624160.0
2,9625210.0
2,9624000.0
2,9623300.0
2,9623390.0
2,9623830.0
2,9624160.0
2,9623870.0
2,9623450.0
2,9623900.0
2,9625050.0
2,9624470.0
2,9623080.0
2,9623270.0
2,9623950.0
2,9623480.0
2,9622940.0
2,9623840.0
2,9623240.0
2,9623070.0
2,9622960.0
2,9621540.0
2,9622320.0
2,9622970.0
2,9623180.0
2,9623110.0
2,9622830.0
2,9623310.0
2,9624290.0
2,9624920.0
2,9622990.0
2,9622620.0
2,9624770.0
2,9624090.0
2,9622820.0
2,9623790.0
2,9623860.0
2,9623610.0
2,9623130.0
2,9621460.0
2,9621400.0
2,9623320.0
2,9623620.0
2,9622840.0
2,9623880.0
2,9624440.0
2,9623690.0
2,9622580.0
2,9621780.0
2,9621960.0
2,9622040.0
2,9623160.0
2,9623720.0
2,9622850.0
2,9622250.0
2,9622630.0
2,9621990.0
2,9622170.0
2,9623080.0
2,9623980.0
2,9623920.0
2,9623340.0
2,9623730.0
2,9624130.0
2,9623550.0
2,9623870.0
2,9623250.0
2,9622850.0
2,9624090.0
2,9623590.0
2,9623140.0
2,9623800.0
2,9624380.0
2,9623740.0
2,9622780.0
2,9623480.0
2,9624700.0
2,9624460.0
2,9623780.0
2,9624290.0
2,9624540.0
2,9624240.0
2,9624470.0
2,9624190.0
2,9624440.0
2,9623190.0
2,9622750.0
2,9623820.0
2,9623540.0
2,9622960.0
2,9623530.0
2,9623190.0
2,9623900.0
2,9624510.0
2,9624050.0
2,9624560.0
2,9624680.0
2,9624590.0
2,9624400.0
2,9623680.0
2,9623810.0
2,9624050.0
2,9623490.0
2,9623720.0
2,9624010.0
2,9624440.0
2,9624160.0
2,9623830.0
2,9623950.0
2,9623940.0
2,9622820.0
2,9623580.0
2,9624680.0
2,9623490.0
2,9623140.0
2,9623360.0
2,9623540.0
2,9624490.0
2,9625250.0
2,9623780.0
2,9624220.0
2,9624580.0
2,9623070.0
2,9623030.0
2,9623820.0
2,9623630.0
2,9623000.0
2,9623120.0
2,9624170.0
2,9624340.0
2,9622950.0
2,9622550.0
2,9622380.0
2,9621300.0
2,9621830.0
2,9623070.0
2,9623130.0
2,9623440.0
2,9624590.0
2,9623730.0
2,9623040.0
2,9623240.0
2,9623030.0
2,9623190.0
2,9622630.0
2,9622370.0
2,9622950.0
2,9623450.0
2,9624010.0
2,9623620.0
2,9624270.0
2,9623440.0
2,9623370.0
2,9623910.0
2,9623970.0
2,9623480.0
2,9622550.0
2,9623510.0
2,9623620.0
2,9623720.0
2,9624900.0
2,9624900.0
2,9624310.0
2,9623610.0
2,9623880.0
2,9624580.0
2,9624150.0
2,9623380.0
2,9624180.0
2,9623850.0
2,9623780.0
2,9624130.0
2,9623840.0
2,9624020.0
2,9623880.0
2,9623300.0
2,9623590.0
2,9623720.0
2,9624280.0
2,9624320.0
2,9624590.0
2,9625910.0
2,9624370.0
2,9622870.0
2,9624870.0
2,9625070.0
2,9623380.0
2,9623250.0
2,9623600.0
2,9623320.0
2,9623460.0
2,9623640.0
2,9623620.0
2,9623000.0
2,9623740.0
2,9624080.0
2,9623630.0
2,9623180.0
2,9623580.0
2,9623350.0
2,9623590.0
2,9623960.0
2,9623820.0
2,9623090.0
2,9623250.0
2,9623620.0
2,9623110.0
2,9623420.0
2,9623420.0
2,9624020.0
2,9624140.0
2,9623490.0
2,9623700.0
2,9623220.0
2,9623340.0
2,9624660.0
2,9624680.0
2,9623930.0
2,9624730.0
2,9624980.0
2,9623780.0
2,9624010.0
2,9624940.0
2,9624020.0
2,9622870.0
2,9623610.0
2,9623800.0
2,9623350.0
2,9623250.0
2,9623090.0
2,9623350.0
2,9623130.0
2,9622120.0
2,9622470.0
2,9623050.0
2,9623250.0
2,9622730.0
2,9622860.0
2,9622840.0
2,9622100.0
2,9622260.0
2,9622950.0
2,9621380.0
2,9621450.0
2,9622800.0
2,9622070.0
2,9621560.0
2,9621570.0
2,9621550.0
2,9622330.0
2,9622990.0
2,9622140.0
2,9621540.0
2,9622990.0
2,9623420.0
2,9622230.0
2,9623140.0
2,9623100.0
2,9622380.0
2,9622080.0
2,9621940.0
2,9621860.0
2,9622330.0
2,9623020.0
2,9622670.0
2,9622930.0
2,9625070.0
2,9624730.0
2,9623170.0
2,9623580.0
2,9623580.0
2,9622930.0
2,9623130.0
2,9624480.0
2,9623900.0
2,9623450.0
2,9623630.0
2,9623080.0
2,9624010.0
2,9625350.0
2,9624870.0
2,9624090.0
2,9623610.0
2,9624560.0
2,9624480.0
2,9624340.0
2,9624910.0
2,9625600.0
2,9625520.0
2,9624780.0
2,9624830.0
2,9624850.0
2,9624780.0
2,9625320.0
2,9624930.0
2,9624600.0
2,9623880.0
2,9624150.0
2,9624190.0
2,9624570.0
2,9624590.0
2,9623650.0
2,9624270.0
2,9624610.0
2,9624530.0
2,9625260.0
2,9625200.0
2,9623300.0
2,9622490.0
2,9624380.0
2,9624340.0
2,9623640.0
2,9624740.0
2,9626100.0
2,9627380.0
2,9627820.0
2,9630200.0
2,9631620.0
2,9631820.0
2,9633730.0
2,9636360.0
2,9638160.0
2,9639310.0
2,9642610.0
2,9645870.0
2,9646820.0
2,9648450.0
2,9651860.0
2,9655060.0
2,9658400.0
2,9660300.0
2,9661080.0
2,9662960.0
2,9665070.0
2,9669090.0
2,9672590.0
2,9676070.0
2,9679380.0
2,9683190.0
2,9688330.0
2,9692010.0
2,9694690.0
2,9697110.0
2,9699860.0
2,9703440.0
2,9708840.0
2,9712820.0
2,9717490.0
2,9722320.0
2,9726120.0
2,9730030.0
2,9734000.0
2,9733630.0
2,9731000.0
2,9727830.0
2,9722710.0
2,9717070.0
2,9711960.0
2,9705060.0
2,9697330.0
2,9689480.0
2,9679820.0
2,9672270.0
2,9667850.0
2,9663100.0
2,9657550.0
2,9650900.0
2,9643050.0
2,9636910.0
2,9632240.0
2,9628740.0
2,9626480.0
2,9624280.0
2,9621620.0
2,9620770.0
2,9620070.0
2,9618770.0
2,9616160.0
2,9614300.0
2,9612480.0
2,9611220.0
2,9610810.0
2,9610820.0
2,9608530.0
2,9606000.0
2,9603040.0
2,9600140.0
2,9598840.0
2,9600060.0
2,9601580.0
2,9601890.0
2,9603310.0
2,9604410.0
2,9605930.0
2,9610180.0
2,9615350.0
2,9619590.0
2,9623170.0
2,9627260.0
2,9630620.0
2,9634320.0
2,9638480.0
2,9642630.0
2,9647740.0
2,9653410.0
2,9658480.0
2,9663630.0
2,9669040.0
2,9672600.0
2,9676360.0
2,9680780.0
2,9682760.0
2,9683990.0
2,9684690.0
2,9685510.0
2,9688010.0
2,9689920.0
2,9689450.0
2,9690080.0
2,9693750.0
2,9694500.0
2,9695030.0
2,9698540.0
2,9700500.0
2,9702090.0
2,9704760.0
2,9707340.0
2,9709280.0
2,9712830.0
2,9716830.0
2,9718690.0
2,9721640.0
2,9725000.0
2,9727290.0
2,9729330.0
2,9732770.0
2,9736610.0
2,9738700.0
2,9740090.0
2,9741960.0
2,9743890.0
2,9743310.0
2,9741970.0
2,9743200.0
2,9742720.0
2,9742320.0
2,9742920.0
2,9741490.0
2,9740720.0
2,9740310.0
2,9740100.0
2,9739860.0
2,9739820.0
2,9740350.0
2,9742360.0
2,9744130.0
2,9745200.0
2,9747580.0
2,9750300.0
2,9752690.0
2,9754530.0
2,9756180.0
2,9759670.0
2,9762730.0
2,9764430.0
2,9767390.0
2,9770020.0
2,9772110.0
2,9773670.0
2,9774820.0
2,9776070.0
2,9776480.0
2,9776060.0
2,9777000.0
2,9776930.0
2,9776250.0
2,9777150.0
2,9776920.0
2,9776660.0
2,9777790.0
2,9778990.0
2,9778820.0
2,9779480.0
2,9779970.0
2,9779960.0
2,9781870.0
2,9782720.0
2,9783750.0
2,9784530.0
2,9785170.0
2,9784960.0
2,9785490.0
2,9786390.0
2,9786700.0
2,9786750.0
2,9786770.0
2,9786950.0
2,9786120.0
2,9785550.0
2,9785720.0
2,9784900.0
2,9784270.0
2,9783880.0
2,9782840.0
2,9782900.0
2,9783180.0
2,9783420.0
2,9784000.0
2,9783900.0
2,9783450.0
2,9783520.0
2,9783440.0
2,9781970.0
2,9781080.0
2,9780540.0
2,9780040.0
2,9779620.0
2,9778350.0
2,9777000.0
2,9775870.0
2,9774770.0
2,9774380.0
2,9772000.0
2,9769470.0
2,9767670.0
2,9766470.0
2,9764460.0
2,9761840.0
2,9759720.0
2,9757970.0
2,9755600.0
2,9751930.0
2,9751040.0
2,9749270.0
2,9746120.0
2,9744750.0
2,9742760.0
2,9739500.0
2,9738670.0
2,9737590.0
2,9733380.0
2,9730470.0
2,9728740.0
2,9726330.0
2,9723730.0
2,9720380.0
2,9718110.0
2,9716160.0
2,9713320.0
2,9711410.0
2,9710120.0
2,9707840.0
2,9706320.0
2,9705110.0
2,9702490.0
2,9702070.0
2,9701690.0
2,9698690.0
2,9699640.0
2,9699640.0
2,9697900.0
2,9697360.0
2,9697620.0
2,9697030.0
2,9697090.0
2,9698050.0
2,9698940.0
2,9698060.0
2,9697440.0
2,9698320.0
2,9699820.0
2,9699630.0
2,9699890.0
2,9701390.0
2,9702330.0
2,9702700.0
2,9703710.0
2,9704510.0
2,9707070.0
2,9708020.0
2,9707920.0
2,9709780.0
2,9710240.0
2,9710500.0
2,9711470.0
2,9712000.0
2,9712890.0
2,9712970.0
2,9713980.0
2,9715390.0
2,9715150.0
2,9715490.0
2,9717710.0
2,9718320.0
2,9718470.0
2,9719530.0
2,9720920.0
2,9721520.0
2,9721940.0
2,9722920.0
2,9722180.0
2,9723990.0
2,9724660.0
2,9724050.0
2,9724430.0
2,9724710.0
2,9725630.0
2,9726550.0
2,9726870.0
2,9727270.0
2,9728130.0
2,9728390.0
2,9729120.0
2,9730540.0
2,9731090.0
2,9730810.0
2,9731220.0
2,9731610.0
2,9732310.0
2,9732420.0
2,9731740.0
2,9732320.0
2,9733240.0
2,9732740.0
2,9732940.0
2,9733400.0
2,9733640.0
2,9734360.0
2,9734190.0
2,9733390.0
2,9732890.0
2,9734080.0
2,9734050.0
2,9733540.0
2,9734700.0
2,9735590.0
2,9734720.0
2,9735320.0
2,9736370.0
2,9736420.0
2,9737470.0
2,9737970.0
2,9737400.0
2,9738330.0
2,9739170.0
2,9740020.0
2,9740340.0
2,9740210.0
2,9741700.0
2,9742860.0
2,9742330.0
2,9743900.0
2,9745380.0
2,9746440.0
2,9747240.0
2,9747210.0
2,9747280.0
2,9748440.0
2,9749000.0
2,9748910.0
2,9750060.0
2,9750860.0
2,9750580.0
2,9751370.0
2,9753110.0
2,9753730.0
2,9754240.0
2,9754010.0
2,9754180.0
2,9756060.0
2,9755500.0
2,9754340.0
2,9755540.0
2,9757010.0
2,9756550.0
2,9756270.0
2,9757100.0
2,9757390.0
2,9757850.0
2,9758460.0
2,9758690.0
2,9760200.0
2,9760040.0
2,9759320.0
2,9760880.0
2,9761970.0
2,9761980.0
2,9762640.0
2,9762130.0
2,9762010.0
2,9762930.0
2,9762360.0
2,9762320.0
2,9763380.0
2,9763050.0
2,9763270.0
2,9763230.0
2,9763320.0
2,9763580.0
2,9763860.0
2,9764680.0
2,9764480.0
2,9764370.0
2,9765130.0
2,9764490.0
2,9765240.0
2,9767750.0
2,9766560.0
2,9764570.0
2,9766660.0
2,9767370.0
2,9766020.0
2,9766470.0
2,9767650.0
2,9768070.0
2,9767540.0
2,9767420.0
2,9768180.0
2,9768510.0
2,9768430.0
2,9767920.0
2,9767730.0
2,9767750.0
2,9766970.0
2,9768820.0
2,9770840.0
2,9769740.0
2,9769610.0
2,9770020.0
2,9769930.0
2,9768460.0
2,9767890.0
2,9769170.0
2,9769300.0
2,9768310.0
2,9768280.0
2,9769040.0
2,9769530.0
2,9768960.0
2,9767860.0
2,9768430.0
2,9768600.0
2,9767770.0
2,9768380.0
2,9768040.0
2,9767370.0
2,9768050.0
2,9767090.0
2,9766140.0
2,9766750.0
2,9767140.0
2,9765550.0
2,9764850.0
2,9765080.0
2,9764540.0
2,9764280.0
2,9764060.0
2,9764670.0
2,9763560.0
2,9762620.0
2,9762420.0
2,9761460.0
2,9761360.0
2,9760900.0
2,9760400.0
2,9759340.0
2,9758480.0
2,9758940.0
2,9759030.0
2,9757090.0
2,9756060.0
2,9755900.0
2,9755440.0
2,9754780.0
2,9754340.0
2,9753350.0
2,9753020.0
2,9753440.0
2,9751690.0
2,9751310.0
2,9751670.0
2,9751000.0
2,9750390.0
2,9749780.0
2,9748350.0
2,9747090.0
2,9746880.0
2,9747550.0
2,9746720.0
2,9746100.0
2,9745740.0
2,9745160.0
2,9745890.0
2,9745810.0
2,9745470.0
2,9744530.0
2,9742680.0
2,9741820.0
2,9741870.0
2,9742900.0
2,9742960.0
2,9741060.0
2,9740390.0
2,9739610.0
2,9738990.0
2,9738290.0
2,9738060.0
2,9739250.0
2,9738910.0
2,9738440.0
2,9737570.0
2,9736450.0
2,9736180.0
2,9735870.0
2,9735140.0
2,9733750.0
2,9734050.0
2,9734050.0
2,9733670.0
2,9733060.0
2,9732310.0
2,9732220.0
2,9731720.0
2,9730460.0
2,9730010.0
2,9730530.0
2,9729920.0
2,9729040.0
2,9728710.0
2,9728560.0
2,9727870.0
2,9726200.0
2,9725500.0
2,9725740.0
2,9725670.0
2,9725180.0
2,9724700.0
2,9724890.0
2,9724720.0
2,9724200.0
2,9723800.0
2,9723810.0
2,9724110.0
2,9723340.0
2,9722160.0
2,9722380.0
2,9723140.0
2,9722560.0
2,9722340.0
2,9722590.0
2,9721650.0
2,9721800.0
2,9721500.0
2,9721030.0
2,9721160.0
2,9720530.0
2,9719680.0
2,9719660.0
2,9719010.0
2,9719040.0
2,9719540.0
2,9717940.0
2,9718180.0
2,9719760.0
2,9719540.0
2,9719960.0
2,9720210.0
2,9720360.0
2,9720020.0
2,9720810.0
2,9721160.0
2,9720230.0
2,9720570.0
2,9720770.0
2,9720340.0
2,9720230.0
2,9720420.0
2,9720010.0
2,9720290.0
2,9721230.0
2,9720800.0
2,9721450.0
2,9721110.0
2,9720000.0
2,9720730.0
2,9720520.0
2,9720080.0
2,9719920.0
2,9719520.0
2,9720200.0
2,9719890.0
2,9720390.0
2,9721810.0
2,9721330.0
2,9719490.0
2,9720750.0
2,9721240.0
2,9719540.0
2,9720350.0
2,9720830.0
2,9721500.0
2,9722070.0
2,9720950.0
2,9720690.0
2,9721670.0
2,9721790.0
2,9721870.0
2,9723160.0
2,9722430.0
2,9721380.0
2,9721380.0
2,9722420.0
2,9722550.0
2,9722170.0
2,9722590.0
2,9723050.0
2,9723450.0
2,9723950.0
2,9723750.0
2,9725200.0
2,9725800.0
2,9724040.0
2,9724130.0
2,9726200.0
2,9724940.0
2,9724890.0
2,9726960.0
2,9726420.0
2,9725920.0
2,9727150.0
2,9727840.0
2,9727440.0
2,9727380.0
2,9728670.0
2,9727790.0
2,9727740.0
2,9728870.0
2,9729420.0
2,9729780.0
2,9730420.0
2,9730000.0
2,9729680.0
2,9730650.0
2,9731120.0
2,9730660.0
2,9731570.0
2,9732210.0
2,9732480.0
2,9733460.0
2,9734000.0
2,9732820.0
2,9733110.0
2,9734230.0
2,9734400.0
2,9734870.0
2,9735540.0
2,9735230.0
2,9736110.0
2,9737220.0
2,9737040.0
2,9736080.0
2,9736520.0
2,9737770.0
2,9738580.0
2,9737950.0
2,9737520.0
2,9738600.0
2,9738560.0
2,9738490.0
2,9738950.0
2,9738930.0
2,9738590.0
2,9739110.0
2,9739970.0
2,9740090.0
2,9740410.0
2,9740270.0
2,9740700.0
2,9741640.0
2,9742700.0
2,9742060.0
2,9741280.0
2,9742200.0
2,9741980.0
2,9741400.0
2,9742860.0
2,9742580.0
2,9742430.0
2,9743330.0
2,9742520.0
2,9742460.0
2,9743620.0
2,9742860.0
2,9742330.0
2,9742220.0
2,9742540.0
2,9742990.0
2,9742700.0
2,9742570.0
2,9742930.0
2,9743370.0
2,9742630.0
2,9741510.0
2,9741950.0
2,9743520.0
2,9743960.0
2,9743660.0
2,9743530.0
2,9743410.0
2,9742810.0
2,9742660.0
2,9742740.0
2,9742960.0
2,9742960.0
2,9742790.0
2,9742990.0
2,9743640.0
2,9742980.0
2,9741280.0
2,9741710.0
2,9742590.0
2,9742150.0
2,9742470.0
2,9742610.0
2,9741130.0
2,9742000.0
2,9742610.0
2,9740580.0
2,9740600.0
2,9741880.0
2,9740510.0
2,9740090.0
2,9740620.0
2,9740300.0
2,9739660.0
2,9739540.0
2,9739700.0
2,9738630.0
2,9738000.0
2,9738010.0
2,9737400.0
2,9737540.0
2,9738300.0
2,9737850.0
2,9738220.0
2,9737630.0
2,9736960.0
2,9737130.0
2,9736260.0
2,9736530.0
2,9736570.0
2,9735010.0
2,9735020.0
2,9735120.0
2,9734790.0
2,9733990.0
2,9734580.0
2,9735100.0
2,9734730.0
2,9733470.0
2,9734220.0
2,9735600.0
2,9733960.0
2,9733240.0
2,9733270.0
2,9732900.0
2,9732200.0
2,9732090.0
2,9732210.0
2,9732160.0
2,9732460.0
2,9732550.0
2,9731600.0
2,9731220.0
2,9731070.0
2,9730710.0
2,9730730.0
2,9731030.0
2,9731520.0
2,9730640.0
2,9730000.0
2,9730270.0
2,9730000.0
2,9730090.0
2,9730210.0
2,9729750.0
2,9730450.0
2,9731830.0
2,9731240.0
2,9729770.0
2,9730280.0
2,9730330.0
2,9729820.0
2,9730240.0
2,9729680.0
2,9729520.0
2,9730450.0
2,9729940.0
2,9730270.0
2,9730790.0
2,9730380.0
2,9730830.0
2,9730780.0
2,9730550.0
2,9730680.0
2,9730280.0
2,9730780.0
2,9730290.0
2,9730080.0
2,9729940.0
2,9730260.0
2,9731460.0
2,9730750.0
2,9730480.0
2,9731240.0
2,9730890.0
2,9730580.0
2,9731920.0
2,9731640.0
2,9731290.0
2,9731320.0
2,9730820.0
2,9731850.0
2,9731890.0
2,9731110.0
2,9732110.0
2,9732420.0
2,9731560.0
2,9732400.0
2,9732610.0
2,9731630.0
2,9732310.0
2,9732270.0
2,9731130.0
2,9732010.0
2,9733950.0
2,9734230.0
2,9733960.0
2,9733450.0
2,9734160.0
2,9735100.0
2,9734990.0
2,9735100.0
2,9734190.0
2,9734880.0
2,9735270.0
2,9734740.0
2,9734930.0
2,9737040.0
2,9736650.0
2,9735370.0
2,9735890.0
2,9736570.0
2,9737080.0
2,9737880.0
2,9738390.0
2,9737510.0
2,9738020.0
2,9739120.0
2,9739330.0
2,9738720.0
2,9739010.0
2,9739680.0
2,9739500.0
2,9739030.0
2,9739100.0
2,9739980.0
2,9740400.0
2,9740290.0
2,9740690.0
2,9741360.0
2,9741560.0
2,9742160.0
2,9742360.0
2,9741310.0
2,9741860.0
2,9742310.0
2,9741890.0
2,9742860.0
2,9743770.0
2,9742830.0
2,9742300.0
2,9743450.0
2,9744140.0
2,9744490.0
2,9745020.0
2,9745320.0
2,9745900.0
2,9744640.0
2,9745240.0
2,9747090.0
2,9746420.0
2,9746210.0
2,9747070.0
2,9747780.0
2,9747170.0
2,9746840.0
2,9746150.0
2,9746470.0
2,9747980.0
2,9746910.0
2,9746880.0
2,9748780.0
2,9749260.0
2,9748250.0
2,9748410.0
2,9749230.0
2,9749050.0
2,9749270.0
2,9749220.0
2,9748720.0
2,9749290.0
2,9749530.0
2,9749930.0
2,9750730.0
2,9750850.0
2,9750220.0
2,9750170.0
2,9749840.0
2,9749520.0
2,9750030.0
2,9749700.0
2,9750000.0
2,9751700.0
2,9750920.0
2,9750700.0
2,9752100.0
2,9751620.0
2,9750120.0
2,9750980.0
2,9751650.0
2,9751390.0
2,9752230.0
2,9751670.0
2,9750780.0
2,9750660.0
2,9751780.0
2,9752600.0
2,9751990.0
2,9752880.0
2,9753060.0
2,9751610.0
2,9752270.0
2,9752360.0
2,9752770.0
2,9752710.0
2,9753110.0
2,9753550.0
2,9753470.0
2,9754220.0
2,9753300.0
2,9752860.0
2,9754300.0
2,9753000.0
2,9751590.0
2,9753040.0
2,9753450.0
2,9752370.0
2,9751460.0
2,9752320.0
2,9753380.0
2,9751550.0
2,9750220.0
2,9751750.0
2,9751880.0
2,9751150.0
2,9750680.0
2,9750610.0
2,9751430.0
2,9749900.0
2,9748710.0
2,9749940.0
2,9749840.0
2,9749140.0
2,9748900.0
2,9751030.0
2,9751390.0
2,9749950.0
2,9749350.0
2,9749400.0
2,9749670.0
2,9749850.0
2,9750050.0
2,9749520.0
2,9748780.0
2,9749090.0
2,9749870.0
2,9750030.0
2,9748640.0
2,9746840.0
2,9748120.0
2,9749330.0
2,9747400.0
2,9747510.0
2,9747870.0
2,9746720.0
2,9747220.0
2,9747920.0
2,9746790.0
2,9745730.0
2,9746730.0
2,9746430.0
2,9745900.0
2,9745870.0
2,9745080.0
2,9744760.0
2,9744880.0
2,9744420.0
2,9744410.0
2,9743840.0
2,9743790.0
2,9744480.0
2,9743790.0
2,9743580.0
2,9744420.0
2,9744660.0
2,9743860.0
2,9743220.0
2,9742880.0
2,9742340.0
2,9742120.0
2,9743430.0
2,9743440.0
2,9742560.0
2,9742310.0
2,9741840.0
2,9740370.0
2,9740120.0
2,9739840.0
2,9738690.0
2,9739520.0
2,9741130.0
2,9739610.0
2,9738570.0
2,9738780.0
2,9737960.0
2,9737930.0
2,9738300.0
2,9737580.0
2,9738060.0
2,9738050.0
2,9737910.0
2,9738610.0
2,9737430.0
2,9736610.0
2,9737970.0
2,9737360.0
2,9736160.0
2,9737100.0
2,9735820.0
2,9735680.0
2,9737200.0
2,9736930.0
2,9737300.0
2,9737010.0
2,9735120.0
2,9735300.0
2,9736350.0
2,9735690.0
2,9734650.0
2,9735480.0
2,9735470.0
2,9735050.0
2,9735450.0
2,9735580.0
2,9735370.0
2,9735530.0
2,9734580.0
2,9734210.0
2,9735500.0
2,9734570.0
2,9733600.0
2,9735170.0
2,9734810.0
2,9733500.0
2,9734370.0
2,9735240.0
2,9734960.0
2,9734300.0
2,9734120.0
2,9734670.0
2,9734080.0
2,9733720.0
2,9734190.0
2,9734420.0
2,9734670.0
2,9734320.0
2,9734060.0
2,9734380.0
2,9734450.0
2,9735410.0
2,9735610.0
2,9734900.0
2,9735950.0
2,9735030.0
2,9734850.0
2,9735730.0
2,9735930.0
2,9734740.0
2,9734940.0
2,9735960.0
2,9734400.0
2,9734480.0
2,9734920.0
2,9734810.0
2,9735110.0
2,9734760.0
2,9732940.0
2,9734020.0
2,9735850.0
2,9735400.0
2,9735060.0
2,9735730.0
2,9736180.0
2,9736590.0
2,9736620.0
2,9736620.0
2,9736680.0
2,9736950.0
2,9736740.0
2,9735970.0
2,9736610.0
2,9737090.0
2,9736640.0
2,9736360.0
2,9736730.0
2,9736760.0
2,9737180.0
2,9737180.0
2,9736750.0
2,9736690.0
2,9736860.0
2,9738090.0
2,9738820.0
2,9737560.0
2,9738060.0
2,9738640.0
2,9738200.0
2,9738790.0
2,9738570.0
2,9738160.0
2,9738000.0
2,9737520.0
2,9737040.0
2,9738040.0
2,9738980.0
2,9737870.0
2,9738340.0
2,9739760.0
2,9739560.0
2,9738840.0
2,9739860.0
2,9740300.0
2,9739600.0
2,9739310.0
2,9740260.0
2,9739980.0
2,9739480.0
2,9740080.0
2,9740670.0
2,9739400.0
2,9739430.0
2,9739890.0
2,9739540.0
2,9738740.0
2,9738150.0
2,9738350.0
2,9738400.0
2,9740310.0
2,9740760.0
2,9740290.0
2,9739800.0
2,9739490.0
2,9739600.0
2,9739520.0
2,9739540.0
2,9739960.0
2,9740890.0
2,9740270.0
2,9740320.0
2,9740800.0
2,9740070.0
2,9738490.0
2,9739370.0
2,9740590.0
2,9739560.0
2,9739350.0
2,9739780.0
2,9738640.0
2,9738770.0
2,9739510.0
2,9739720.0
2,9738620.0
2,9738620.0
2,9740250.0
2,9739320.0
2,9738730.0
2,9739090.0
2,9738370.0
2,9739070.0
2,9740000.0
2,9739490.0
2,9738700.0
2,9739060.0
2,9739370.0
2,9739290.0
2,9739530.0
2,9740020.0
2,9739610.0
2,9739710.0
2,9739100.0
2,9738910.0
2,9738800.0
2,9738430.0
2,9738640.0
2,9738470.0
2,9737140.0
2,9737700.0
2,9738820.0
2,9738260.0
2,9737670.0
2,9737810.0
2,9738800.0
2,9737610.0
2,9737460.0
2,9738180.0
2,9737890.0
2,9737390.0
2,9738860.0
2,9738350.0
2,9736500.0
2,9738010.0
2,9738490.0
2,9738030.0
2,9738380.0
2,9738060.0
2,9736690.0
2,9736670.0
2,9737640.0
2,9737310.0
2,9737140.0
2,9738190.0
2,9737890.0
2,9737220.0
2,9737800.0
2,9737630.0
2,9737030.0
2,9736730.0
2,9736060.0
2,9735820.0
2,9735610.0
2,9735770.0
2,9735840.0
2,9736530.0
2,9736980.0
2,9736490.0
2,9734670.0
2,9737850.0
2,9759290.0
2,9779980.0
2,9775070.0
2,9766890.0
2,9766590.0
2,9770000.0
2,9778630.0
2,9795750.0
2,9812290.0
2,9823240.0
2,9828780.0
2,9834780.0
2,9846490.0
2,9855740.0
2,9860110.0
2,9860800.0
2,9855440.0
2,9844400.0
2,9831290.0
2,9827630.0
2,9830730.0
2,9833300.0
2,9837460.0
2,9840620.0
2,9833960.0
2,9820050.0
2,9801170.0
2,9783060.0
2,9767770.0
2,9752930.0
2,9739760.0
2,9729460.0
2,9721940.0
2,9716820.0
2,9715190.0
2,9717390.0
2,9721460.0
2,9725790.0
2,9727680.0
2,9729220.0
2,9729670.0
2,9726480.0
2,9718490.0
2,9708820.0
2,9699290.0
2,9689930.0
2,9681910.0
2,9673380.0
2,9663940.0
2,9654420.0
2,9645560.0
2,9635980.0
2,9625500.0
2,9616140.0
2,9609900.0
2,9607120.0
2,9605890.0
2,9607870.0
2,9612530.0
2,9618660.0
2,9621890.0
2,9621320.0
2,9616060.0
2,9604900.0
2,9590850.0
2,9574420.0
2,9557480.0
2,9541210.0
2,9526790.0
2,9515950.0
2,9508250.0
2,9504990.0
2,9503720.0
2,9505590.0
2,9510230.0
2,9513260.0
2,9515640.0
2,9517490.0
2,9518320.0
2,9518560.0
2,9520180.0
2,9519890.0
2,9519860.0
2,9522600.0
2,9525840.0
2,9528110.0
2,9531460.0
2,9535380.0
2,9537950.0
2,9538020.0
2,9534610.0
2,9530090.0
2,9527050.0
2,9522700.0
2,9518860.0
2,9516980.0
2,9514550.0
2,9513500.0
2,9514210.0
2,9513650.0
2,9512890.0
2,9515410.0
2,9517250.0
2,9518210.0
2,9522050.0
2,9527190.0
2,9529830.0
2,9533500.0
2,9538440.0
2,9539660.0
2,9540880.0
2,9540870.0
2,9539200.0
2,9536780.0
2,9534530.0
2,9531040.0
2,9527210.0
2,9524530.0
2,9522060.0
2,9521330.0
2,9520250.0
2,9520250.0
2,9520330.0
2,9519170.0
2,9519060.0
2,9518730.0
2,9519480.0
2,9520040.0
2,9521080.0
2,9523210.0
2,9525390.0
2,9527380.0
2,9528670.0
2,9529290.0
2,9530100.0
2,9531910.0
2,9534420.0
2,9535650.0
2,9536820.0
2,9538100.0
2,9539440.0
2,9540880.0
2,9541630.0
2,9542970.0
2,9544280.0
2,9545040.0
2,9544970.0
2,9544180.0
2,9543870.0
2,9543390.0
2,9542030.0
2,9541510.0
2,9541250.0
2,9540100.0
2,9539320.0
2,9540110.0
2,9540700.0
2,9540270.0
2,9539980.0
2,9539420.0
2,9540540.0
2,9540700.0
2,9540100.0
2,9539920.0
2,9539410.0
2,9539440.0
2,9539200.0
2,9539020.0
2,9538750.0
2,9538260.0
2,9537020.0
2,9536130.0
2,9535330.0
2,9534600.0
2,9533330.0
2,9532860.0
2,9532120.0
2,9531240.0
2,9530490.0
2,9529990.0
2,9530110.0
2,9530050.0
2,9529860.0
2,9528700.0
2,9528640.0
2,9529670.0
2,9530430.0
2,9529400.0
2,9529160.0
2,9529610.0
2,9528750.0
2,9529710.0
2,9529930.0
2,9528720.0
2,9529630.0
2,9531350.0
2,9531310.0
2,9532170.0
2,9532030.0
2,9531900.0
2,9533260.0
2,9533710.0
2,9534370.0
2,9535150.0
2,9536230.0
2,9537390.0
2,9536600.0
2,9536120.0
2,9537410.0
2,9538270.0
2,9537280.0
2,9537510.0
2,9538800.0
2,9538420.0
2,9537870.0
2,9538200.0
2,9539240.0
2,9538270.0
2,9536460.0
2,9537360.0
2,9537260.0
2,9536550.0
2,9536720.0
2,9535840.0
2,9535260.0
2,9534950.0
2,9535510.0
2,9535390.0
2,9533900.0
2,9533590.0
2,9535020.0
2,9535080.0
2,9534910.0
2,9534660.0
2,9534780.0
2,9535200.0
2,9534900.0
2,9535370.0
2,9535830.0
2,9534600.0
2,9534880.0
2,9534940.0
2,9534120.0
2,9533990.0
2,9534340.0
2,9534350.0
2,9533120.0
2,9533790.0
2,9534400.0
2,9533340.0
2,9533220.0
2,9533630.0
2,9533280.0
2,9532560.0
2,9531840.0
2,9532180.0
2,9531830.0
2,9531880.0
2,9531540.0
2,9530890.0
2,9532050.0
2,9531840.0
2,9530520.0
2,9529280.0
2,9529370.0
2,9529820.0
2,9528830.0
2,9528810.0
2,9528660.0
2,9528080.0
2,9528250.0
2,9528050.0
2,9528240.0
2,9528110.0
2,9528010.0
2,9528230.0
2,9527240.0
2,9525880.0
2,9526590.0
2,9527130.0
2,9526730.0
2,9526070.0
2,9526850.0
2,9527660.0
2,9527370.0
2,9528240.0
2,9528540.0
2,9528400.0
2,9529180.0
2,9529510.0
2,9530430.0
2,9529830.0
2,9529400.0
2,9530260.0
2,9529550.0
2,9528910.0
2,9529520.0
2,9529060.0
2,9528710.0
2,9529500.0
2,9528710.0
2,9529340.0
2,9529860.0
2,9528070.0
2,9527790.0
2,9530290.0
2,9529530.0
2,9527010.0
2,9528480.0
2,9529430.0
2,9528940.0
2,9529130.0
2,9529030.0
2,9528420.0
2,9528660.0
2,9528120.0
2,9528320.0
2,9529100.0
2,9529650.0
2,9528870.0
2,9528180.0
2,9527720.0
2,9527540.0
2,9528290.0
2,9527680.0
2,9526540.0
2,9528380.0
2,9528750.0
2,9527480.0
2,9527540.0
2,9528060.0
2,9528800.0
2,9528310.0
2,9527490.0
2,9527890.0
2,9527880.0
2,9528220.0
2,9527910.0
2,9526810.0
2,9527110.0
2,9527100.0
2,9527350.0
2,9527590.0
2,9527190.0
2,9527250.0
2,9527730.0
2,9526830.0
2,9525880.0
2,9526540.0
2,9527230.0
2,9525450.0
2,9525680.0
2,9527000.0
2,9525260.0
2,9525030.0
2,9526000.0
2,9524790.0
2,9524490.0
2,9525720.0
2,9525290.0
2,9524560.0
2,9525290.0
2,9525500.0
2,9525100.0
2,9524910.0
2,9525490.0
2,9526230.0
2,9525600.0
2,9525560.0
2,9526180.0
2,9525420.0
2,9525760.0
2,9526210.0
2,9527270.0
2,9527680.0
2,9527160.0
2,9527440.0
2,9527380.0
2,9526390.0
2,9527590.0
2,9529980.0
2,9527940.0
2,9528160.0
2,9530140.0
2,9528960.0
2,9528680.0
2,9528940.0
2,9529330.0
2,9529740.0
2,9529400.0
2,9529350.0
2,9530480.0
2,9530020.0
2,9528170.0
2,9528890.0
2,9530090.0
2,9529560.0
2,9528610.0
2,9527950.0
2,9528060.0
2,9527060.0
2,9526430.0
2,9526540.0
2,9526480.0
2,9527260.0
2,9526930.0
2,9525520.0
2,9525880.0
2,9527940.0
2,9528360.0
2,9527780.0
2,9527890.0
2,9528220.0
2,9527700.0
2,9527530.0
2,9526920.0
2,9527100.0
2,9527880.0
2,9527110.0
2,9527360.0
2,9527940.0
2,9527700.0
2,9528310.0
2,9529210.0
2,9527670.0
2,9526230.0
2,9526400.0
2,9526180.0
2,9526320.0
2,9526390.0
2,9526780.0
2,9526990.0
2,9527200.0
2,9527060.0
2,9526500.0
2,9526540.0
2,9526850.0
2,9526580.0
2,9526430.0
2,9526140.0
2,9526960.0
2,9526820.0
2,9526020.0
2,9526330.0
2,9526900.0
2,9526470.0
2,9525510.0
2,9526010.0
2,9527010.0
2,9526710.0
2,9525710.0
2,9526010.0
2,9527080.0
2,9526960.0
2,9526100.0
2,9526390.0
2,9526490.0
2,9525710.0
2,9526130.0
2,9525770.0
2,9526120.0
2,9526250.0
2,9525580.0
2,9525820.0
2,9525380.0
2,9524920.0
2,9525620.0
2,9526600.0
2,9526100.0
2,9524920.0
2,9524800.0
2,9525260.0
2,9525760.0
2,9525080.0
2,9525330.0
2,9525800.0
2,9525670.0
2,9524490.0
2,9525030.0
2,9525000.0
2,9525220.0
2,9525760.0
2,9526200.0
2,9525960.0
2,9524720.0
2,9524820.0
2,9524790.0
2,9524540.0
2,9524480.0
2,9524720.0
2,9524200.0
2,9524140.0
2,9525470.0
2,9525010.0
2,9523750.0
2,9524490.0
2,9524460.0
2,9522680.0
2,9523370.0
2,9524700.0
2,9523800.0
2,9523540.0
2,9524340.0
2,9523490.0
2,9523600.0
2,9523660.0
2,9523800.0
2,9524680.0
2,9524480.0
2,9523850.0
2,9524230.0
2,9524390.0
2,9523660.0
2,9522990.0
2,9522660.0
2,9523210.0
2,9523700.0
2,9523740.0
2,9523280.0
2,9523090.0
2,9523470.0
2,9523140.0
2,9523500.0
2,9524120.0
2,9525180.0
2,9523930.0
2,9523600.0
2,9524920.0
2,9524600.0
2,9524150.0
2,9524390.0
2,9523840.0
2,9524280.0
2,9524970.0
2,9523760.0
2,9523850.0
2,9524190.0
2,9523400.0
2,9523380.0
2,9524280.0
2,9524630.0
2,9524780.0
2,9524620.0
2,9524370.0
2,9524690.0
2,9523910.0
2,9523960.0
2,9524700.0
2,9525840.0
2,9524840.0
2,9523710.0
2,9525370.0
2,9524810.0
2,9525040.0
2,9526910.0
2,9526870.0
2,9526020.0
2,9525630.0
2,9525050.0
2,9525350.0
2,9526310.0
2,9527590.0
2,9526190.0
2,9526330.0
2,9527530.0
2,9527570.0
2,9526440.0
2,9525580.0
2,9525670.0
2,9525650.0
2,9525560.0
2,9526270.0
2,9525830.0
2,9525180.0
2,9525590.0
2,9526220.0
2,9525840.0
2,9526510.0
2,9527210.0
2,9526770.0
2,9526790.0
2,9527150.0
2,9527550.0
2,9526840.0
2,9527520.0
2,9527700.0
2,9526930.0
2,9526880.0
2,9526560.0
2,9527040.0
2,9526730.0
2,9526410.0
2,9527520.0
2,9526540.0
2,9526610.0
2,9527560.0
2,9527620.0
2,9527680.0
2,9527920.0
2,9528970.0
2,9529220.0
2,9528380.0
2,9527890.0
2,9527540.0
2,9526930.0
2,9527460.0
2,9528180.0
2,9528080.0
2,9528290.0
2,9528570.0
2,9528800.0
2,9528540.0
2,9528200.0
2,9528020.0
2,9527050.0
2,9528240.0
2,9529010.0
2,9527660.0
2,9527830.0
2,9527610.0
2,9528340.0
2,9530270.0
2,9528600.0
2,9527640.0
2,9528900.0
2,9528490.0
2,9528510.0
2,9530190.0
2,9531620.0
2,9531100.0
2,9530460.0
2,9531010.0
2,9531160.0
2,9530980.0
2,9530500.0
2,9530910.0
2,9531130.0
2,9531360.0
2,9530890.0
2,9531450.0
2,9531570.0
2,9531390.0
2,9531980.0
2,9531950.0
2,9531740.0
2,9532770.0
2,9532370.0
2,9532070.0
2,9532340.0
2,9532730.0
2,9531520.0
2,9531660.0
2,9532540.0
2,9531050.0
2,9531780.0
2,9532230.0
2,9531050.0
2,9531120.0
2,9531450.0
2,9531050.0
2,9531410.0
2,9531680.0
2,9531110.0
2,9531400.0
2,9531060.0
2,9529830.0
2,9529340.0
2,9530010.0
2,9531350.0
2,9531190.0
2,9530700.0
2,9530600.0
2,9530520.0
2,9531240.0
2,9531740.0
2,9531740.0
2,9532390.0
2,9531770.0
2,9530910.0
2,9531370.0
2,9532780.0
2,9532130.0
2,9531430.0
2,9532730.0
2,9533290.0
2,9533240.0
2,9533190.0
2,9532610.0
2,9532820.0
2,9532350.0
2,9531740.0
2,9532940.0
2,9534080.0
2,9532790.0
2,9531920.0
2,9532450.0
2,9531900.0
2,9531980.0
2,9532900.0
2,9532550.0
2,9532960.0
2,9533150.0
2,9532250.0
2,9531900.0
2,9532100.0
2,9532230.0
2,9530480.0
2,9530780.0
2,9532580.0
2,9531770.0
2,9532050.0
2,9532940.0
2,9532720.0
2,9532280.0
2,9533120.0
2,9533910.0
2,9532840.0
2,9532000.0
2,9532380.0
2,9532610.0
2,9532420.0
2,9532440.0
2,9531780.0
2,9532480.0
2,9532870.0
2,9532160.0
2,9531940.0
2,9532870.0
2,9533180.0
2,9532260.0
2,9532030.0
2,9532650.0
2,9532090.0
2,9531680.0
2,9532190.0
2,9532530.0
2,9532200.0
2,9533080.0
2,9533750.0
2,9532820.0
2,9532820.0
2,9531760.0
2,9531500.0
2,9532290.0
2,9531610.0
2,9532000.0
2,9533370.0
2,9532990.0
2,9532470.0
2,9531620.0
2,9531850.0
2,9532280.0
2,9531420.0
2,9531020.0
2,9530360.0
2,9530900.0
2,9531140.0
2,9529900.0
2,9530460.0
2,9528730.0
2,9524310.0
2,9521000.0
2,9518780.0
2,9515350.0
2,9513890.0
2,9509880.0
2,9498820.0
2,9483260.0
2,9466210.0
2,9455270.0
2,9456040.0
2,9470790.0
2,9498400.0
2,9529740.0
2,9553730.0
2,9567850.0
2,9579620.0
2,9592350.0
2,9605060.0
2,9616390.0
2,9625470.0
2,9633510.0
2,9643390.0
2,9654440.0
2,9663410.0
2,9668630.0
2,9672150.0
2,9669600.0
2,9662180.0
2,9654200.0
2,9645900.0
2,9639750.0
2,9635770.0
2,9633010.0
2,9630800.0
2,9627780.0
2,9623840.0
2,9617430.0
2,9610790.0
2,9603410.0
2,9596080.0
2,9589410.0
2,9584130.0
2,9582940.0
2,9582130.0
2,9580630.0
2,9581510.0
2,9583280.0
2,9581580.0
2,9578360.0
2,9574170.0
2,9567550.0
2,9560240.0
2,9552870.0
2,9544760.0
2,9537560.0
2,9533410.0
2,9530760.0
2,9528440.0
2,9526560.0
2,9527010.0
2,9525440.0
2,9520970.0
2,9517540.0
2,9514620.0
2,9508770.0
2,9503170.0
2,9498830.0
2,9496090.0
2,9495230.0
2,9492510.0
2,9491380.0
2,9492200.0
2,9492400.0
2,9496580.0
2,9499900.0
2,9500540.0
2,9501210.0
2,9502120.0
2,9503780.0
2,9505580.0
2,9508930.0
2,9511690.0
2,9511480.0
2,9511120.0
2,9511610.0
2,9510430.0
2,9509610.0
2,9510660.0
2,9510280.0
2,9509630.0
2,9510500.0
2,9510700.0
2,9510570.0
2,9510610.0
2,9509630.0
2,9508080.0
2,9506030.0
2,9504190.0
2,9502990.0
2,9501060.0
2,9500120.0
2,9500450.0
2,9499950.0
2,9499450.0
2,9501410.0
2,9502740.0
2,9503850.0
2,9506390.0
2,9509150.0
2,9511610.0
2,9514780.0
2,9517680.0
2,9520940.0
2,9525130.0
2,9528800.0
2,9531130.0
2,9532760.0
2,9534140.0
2,9535610.0
2,9536390.0
2,9535610.0
2,9535290.0
2,9535720.0
2,9534580.0
2,9533540.0
2,9532400.0
2,9529860.0
2,9527260.0
2,9525300.0
2,9523060.0
2,9519800.0
2,9518720.0
2,9515990.0
2,9513160.0
2,9513410.0
2,9512270.0
2,9510710.0
2,9510640.0
2,9511630.0
2,9511390.0
2,9510410.0
2,9511930.0
2,9513490.0
2,9513280.0
2,9514130.0
2,9514790.0
2,9515220.0
2,9517130.0
2,9517170.0
2,9516740.0
2,9518730.0
2,9519290.0
2,9519580.0
2,9520130.0
2,9519560.0
2,9519980.0
2,9520790.0
2,9519690.0
2,9519000.0
2,9518890.0
2,9517760.0
2,9517300.0
2,9516590.0
2,9515080.0
2,9514740.0
2,9513740.0
2,9513450.0
2,9515020.0
2,9513780.0
2,9513470.0
2,9514750.0
2,9514370.0
2,9513460.0
2,9514040.0
2,9514520.0
2,9514640.0
2,9515500.0
2,9515640.0
2,9516370.0
2,9516780.0
2,9516630.0
2,9516940.0
2,9516420.0
2,9515660.0
2,9516060.0
2,9516490.0
2,9515330.0
2,9515140.0
2,9515130.0
2,9514170.0
2,9512600.0
2,9512510.0
2,9513150.0
2,9512130.0
2,9511180.0
2,9512060.0
2,9511820.0
2,9513040.0
2,9513300.0
2,9511960.0
2,9511660.0
2,9512620.0
2,9513500.0
2,9514580.0
2,9514980.0
2,9514010.0
2,9515610.0
2,9515800.0
2,9515040.0
2,9517250.0
2,9517900.0
2,9517120.0
2,9517240.0
2,9518050.0
2,9518580.0
2,9518150.0
2,9517680.0
2,9516060.0
2,9516220.0
2,9516720.0
2,9516180.0
2,9516400.0
2,9515740.0
2,9514700.0
2,9514930.0
2,9514550.0
2,9514010.0
2,9514330.0
2,9515560.0
2,9515190.0
2,9514910.0
2,9515230.0
2,9515220.0
2,9515210.0
2,9514800.0
2,9515190.0
2,9515600.0
2,9515550.0
2,9515930.0
2,9516300.0
2,9516700.0
2,9517600.0
2,9517790.0
2,9517000.0
2,9516560.0
2,9517110.0
2,9517730.0
2,9516810.0
2,9516390.0
2,9516370.0
2,9515170.0
2,9514680.0
2,9514780.0
2,9514610.0
2,9514560.0
2,9513880.0
2,9513730.0
2,9513960.0
2,9513040.0
2,9511910.0
2,9512840.0
2,9513260.0
2,9512220.0
2,9512140.0
2,9512340.0
2,9512140.0
2,9512240.0
2,9512450.0
2,9512900.0
2,9514000.0
2,9513010.0
2,9512890.0
2,9513730.0
2,9513120.0
2,9513050.0
2,9514060.0
2,9513570.0
2,9512830.0
2,9512690.0
2,9512720.0
2,9513650.0
2,9513690.0
2,9512380.0
2,9513460.0
2,9513760.0
2,9512590.0
2,9512010.0
2,9512350.0
2,9512780.0
2,9513100.0
2,9512720.0
2,9512760.0
2,9513110.0
2,9513190.0
2,9513320.0
2,9514100.0
2,9514600.0
2,9514430.0
2,9514650.0
2,9514380.0
2,9514440.0
2,9514970.0
2,9514580.0
2,9514340.0
2,9514620.0
2,9514340.0
2,9515190.0
2,9516810.0
2,9516590.0
2,9516170.0
2,9516060.0
2,9515500.0
2,9516250.0
2,9516280.0
2,9515550.0
2,9515000.0
2,9515190.0
2,9515670.0
2,9515630.0
2,9516110.0
2,9516630.0
2,9516710.0
2,9516840.0
2,9515270.0
2,9514000.0
2,9515470.0
2,9516270.0
2,9515590.0
2,9515580.0
2,9515940.0
2,9515770.0
2,9514400.0
2,9514910.0
2,9515700.0
2,9516350.0
2,9516240.0
2,9516070.0
2,9517230.0
2,9516500.0
2,9515660.0
2,9516910.0
2,9515950.0
2,9515330.0
2,9515700.0
2,9516170.0
2,9515280.0
2,9516730.0
2,9517760.0
2,9515920.0
2,9516190.0
2,9517040.0
2,9516430.0
2,9515310.0
2,9515750.0
2,9516170.0
2,9515980.0
2,9515840.0
2,9515430.0
2,9516410.0
2,9516750.0
2,9515560.0
2,9516070.0
2,9516720.0
2,9516810.0
2,9517620.0
2,9518440.0
2,9518290.0
2,9516910.0
2,9517010.0
2,9517640.0
2,9517110.0
2,9516430.0
2,9517730.0
2,9517560.0
2,9517240.0
2,9517540.0
2,9517180.0
2,9516770.0
2,9517920.0
2,9517300.0
2,9517010.0
2,9517810.0
2,9517170.0
2,9516920.0
2,9516510.0
2,9516390.0
2,9518510.0
2,9518810.0
2,9517300.0
2,9517970.0
2,9518940.0
2,9517380.0
2,9516960.0
2,9518480.0
2,9518330.0
2,9518490.0
2,9518670.0
2,9517720.0
2,9517010.0
2,9516710.0
2,9517040.0
2,9518320.0
2,9517310.0
2,9517460.0
2,9517420.0
2,9516980.0
2,9517300.0
2,9517600.0
2,9517590.0
2,9518200.0
2,9517950.0
2,9517600.0
2,9517390.0
2,9517250.0
2,9517280.0
2,9517840.0
2,9517880.0
2,9517740.0
2,9517840.0
2,9517790.0
2,9517610.0
2,9517510.0
2,9517070.0
2,9517030.0
2,9517340.0
2,9518270.0
2,9518380.0
2,9518230.0
2,9518150.0
2,9518010.0
2,9519120.0
2,9518570.0
2,9517920.0
2,9519380.0
2,9519560.0
2,9519300.0
2,9519700.0
2,9518460.0
2,9517880.0
2,9519430.0
2,9519030.0
2,9518250.0
2,9519160.0
2,9518690.0
2,9516730.0
2,9517340.0
2,9518720.0
2,9518460.0
2,9517460.0
2,9516840.0
2,9517350.0
2,9518450.0
2,9518250.0
2,9516960.0
2,9517240.0
2,9518410.0
2,9517400.0
2,9517730.0
2,9518940.0
2,9517510.0
2,9516760.0
2,9517520.0
2,9517820.0
2,9517480.0
2,9517730.0
2,9518320.0
2,9517140.0
2,9517450.0
2,9518550.0
2,9518230.0
2,9517320.0
2,9517360.0
2,9517780.0
2,9517840.0
2,9517860.0
2,9517860.0
2,9518550.0
2,9518190.0
2,9518080.0
2,9519260.0
2,9518820.0
2,9517810.0
2,9518110.0
2,9517700.0
2,9516680.0
2,9517210.0
2,9517930.0
2,9517490.0
2,9517230.0
2,9517270.0
2,9517050.0
2,9517060.0
2,9518500.0
2,9518160.0
2,9517050.0
2,9517520.0
2,9518100.0
2,9517430.0
2,9517160.0
2,9517890.0
2,9516840.0
2,9514910.0
2,9511500.0
2,9506100.0
2,9500450.0
2,9495300.0
2,9490580.0
2,9484670.0
2,9478940.0
2,9474640.0
2,9470740.0
2,9467130.0
2,9463360.0
2,9462890.0
2,9464650.0
2,9467440.0
2,9469420.0
2,9471000.0
2,9472540.0
2,9476580.0
2,9482500.0
2,9488640.0
2,9497790.0
2,9508650.0
2,9519260.0
2,9529750.0
2,9540590.0
2,9550230.0
2,9559230.0
2,9566350.0
2,9571860.0
2,9577450.0
2,9580430.0
2,9582030.0
2,9583740.0
2,9584100.0
2,9582630.0
2,9580190.0
2,9577290.0
2,9575380.0
2,9572200.0
2,9568510.0
2,9566450.0
2,9562920.0
2,9560350.0
2,9559510.0
2,9558860.0
2,9557440.0
2,9556420.0
2,9556400.0
2,9553680.0
2,9551260.0
2,9550100.0
2,9547200.0
2,9543740.0
2,9542570.0
2,9542260.0
2,9541740.0
2,9541290.0
2,9541100.0
2,9541910.0
2,9542610.0
2,9542530.0
2,9541910.0
2,9540240.0
2,9540300.0
2,9539880.0
2,9538170.0
2,9537720.0
2,9537920.0
2,9537710.0
2,9537920.0
2,9538960.0
2,9539870.0
2,9541340.0
2,9542470.0
2,9544020.0
2,9544840.0
2,9545560.0
2,9547660.0
2,9548160.0
2,9548590.0
2,9550260.0
2,9550520.0
2,9550440.0
2,9551400.0
2,9549850.0
2,9548190.0
2,9546820.0
2,9545090.0
2,9543300.0
2,9541870.0
2,9539870.0
2,9537030.0
2,9535420.0
2,9534750.0
2,9532400.0
2,9529310.0
2,9528330.0
2,9528260.0
2,9526810.0
2,9525400.0
2,9524380.0
2,9523760.0
2,9522960.0
2,9522600.0
2,9523230.0
2,9523090.0
2,9524280.0
2,9526550.0
2,9526090.0
2,9526820.0
2,9528750.0
2,9528490.0
2,9528710.0
2,9530640.0
2,9532790.0
2,9533100.0
2,9533380.0
2,9535690.0
2,9535190.0
2,9534720.0
2,9536360.0
2,9537960.0
2,9537850.0
2,9536850.0
2,9537490.0
2,9538020.0
2,9536840.0
2,9535400.0
2,9534320.0
2,9533300.0
2,9532530.0
2,9532380.0
2,9530950.0
2,9527540.0
2,9526560.0
2,9526690.0
2,9525050.0
2,9524560.0
2,9524740.0
2,9523920.0
2,9523390.0
2,9523140.0
2,9522540.0
2,9522250.0
2,9523140.0
2,9523860.0
2,9523540.0
2,9523390.0
2,9523290.0
2,9524080.0
2,9524850.0
2,9524800.0
2,9524080.0
2,9524190.0
2,9524970.0
2,9524680.0
2,9523410.0
2,9525520.0
2,9526350.0
2,9524410.0
2,9524600.0
2,9525270.0
2,9525520.0
2,9525450.0
2,9525780.0
2,9526180.0
2,9525380.0
2,9524940.0
2,9526060.0
2,9526970.0
2,9526420.0
2,9526790.0
2,9527440.0
2,9527030.0
2,9527220.0
2,9526930.0
2,9527380.0
2,9528400.0
2,9527690.0
2,9527740.0
2,9528210.0
2,9527500.0
2,9527040.0
2,9527450.0
2,9527810.0
2,9527080.0
2,9527400.0
2,9526650.0
2,9525950.0
2,9525960.0
2,9525830.0
2,9526690.0
2,9527190.0
2,9527450.0
2,9527880.0
2,9528220.0
2,9528800.0
2,9528560.0
2,9528540.0
2,9528350.0
2,9528600.0
2,9528490.0
2,9529050.0
2,9529650.0
2,9528780.0
2,9528180.0
2,9528050.0
2,9527390.0
2,9527030.0
2,9527020.0
2,9526780.0
2,9527370.0
2,9526560.0
2,9525980.0
2,9525950.0
2,9524770.0
2,9524430.0
2,9524900.0
2,9524060.0
2,9524230.0
2,9523490.0
2,9522490.0
2,9522900.0
2,9522610.0
2,9523030.0
2,9524000.0
2,9523150.0
2,9521880.0
2,9523270.0
2,9524180.0
2,9523350.0
2,9522670.0
2,9523010.0
2,9523360.0
2,9522970.0
2,9522330.0
2,9523440.0
2,9523510.0
2,9523470.0
2,9523170.0
2,9523810.0
2,9523580.0
2,9521740.0
2,9522710.0
2,9523420.0
2,9523090.0
2,9522540.0
2,9523570.0
2,9523090.0
2,9522080.0
2,9523170.0
2,9522800.0
2,9521490.0
2,9522450.0
2,9523000.0
2,9521930.0
2,9522170.0
2,9522270.0
2,9522450.0
2,9522580.0
2,9522610.0
2,9523530.0
2,9523960.0
2,9523090.0
2,9523020.0
2,9523610.0
2,9523080.0
2,9522590.0
2,9522260.0
2,9522570.0
2,9522460.0
2,9521950.0
2,9521730.0
2,9522180.0
2,9521480.0
2,9519680.0
2,9517450.0
2,9516960.0
2,9515850.0
2,9513460.0
2,9511780.0
2,9511760.0
2,9510460.0
2,9507790.0
2,9507390.0
2,9507320.0
2,9506240.0
2,9505980.0
2,9506520.0
2,9506640.0
2,9507620.0
2,9509700.0
2,9512130.0
2,9515240.0
2,9517620.0
2,9520340.0
2,9524210.0
2,9527320.0
2,9530490.0
2,9534070.0
2,9537770.0
2,9541160.0
2,9543810.0
2,9546400.0
2,9549570.0
2,9550300.0
2,9551310.0
2,9553320.0
2,9554100.0
2,9553830.0
2,9554440.0
2,9554640.0
2,9554810.0
2,9553700.0
2,9553270.0
2,9552660.0
2,9551980.0
2,9550320.0
2,9548450.0
2,9547540.0
2,9546610.0
2,9545240.0
2,9543560.0
2,9542810.0
2,9541030.0
2,9538480.0
2,9537780.0
2,9537560.0
2,9535170.0
2,9533360.0
2,9531950.0
2,9529530.0
2,9528000.0
2,9527680.0
2,9526090.0
2,9524350.0
2,9524070.0
2,9522600.0
2,9522610.0
2,9522000.0
2,9520800.0
2,9521650.0
2,9522120.0
2,9521790.0
2,9521760.0
2,9521550.0
2,9522320.0
2,9523770.0
2,9523650.0
2,9523930.0
2,9525340.0
2,9526860.0
2,9526880.0
2,9526690.0
2,9528040.0
2,9528760.0
2,9529140.0
2,9530140.0
2,9530380.0
2,9529910.0
2,9529320.0
2,9529700.0
2,9530200.0
2,9529100.0
2,9528590.0
2,9527750.0
2,9527340.0
2,9526920.0
2,9527200.0
2,9527360.0
2,9526610.0
2,9526170.0
2,9525870.0
2,9525980.0
2,9525680.0
2,9525560.0
2,9525210.0
2,9525280.0
2,9524650.0
2,9524950.0
2,9525640.0
2,9525620.0
2,9524850.0
2,9525540.0
2,9525350.0
2,9524460.0
2,9523760.0
2,9524630.0
2,9525610.0
2,9524000.0
2,9523940.0
2,9523660.0
2,9521690.0
2,9520500.0
2,9520820.0
2,9520680.0
2,9520660.0
2,9519790.0
2,9519080.0
2,9519210.0
2,9518490.0
2,9517950.0
2,9518380.0
2,9518270.0
2,9518000.0
2,9518740.0
2,9519610.0
2,9518330.0
2,9516590.0
2,9517390.0
2,9518550.0
2,9517550.0
2,9517130.0
2,9518090.0
2,9516810.0
2,9516550.0
2,9517520.0
2,9518090.0
2,9518650.0
2,9518630.0
2,9518820.0
2,9518410.0
2,9518970.0
2,9520420.0
2,9520150.0
2,9520210.0
2,9520960.0
2,9520800.0
2,9521350.0
2,9521340.0
2,9520780.0
2,9521450.0
2,9521880.0
2,9522850.0
2,9524010.0
2,9523470.0
2,9524120.0
2,9524350.0
2,9523970.0
2,9524690.0
2,9525680.0
2,9525160.0
2,9524330.0
2,9524640.0
2,9525120.0
2,9525620.0
2,9525920.0
2,9526310.0
2,9526530.0
2,9526990.0
2,9527810.0
2,9528040.0
2,9528100.0
2,9528440.0
2,9528620.0
2,9528560.0
2,9529260.0
2,9529710.0
2,9529040.0
2,9529250.0
2,9528820.0
2,9528510.0
2,9529270.0
2,9529580.0
2,9529190.0
2,9530000.0
2,9530550.0
2,9530120.0
2,9529760.0
2,9530570.0
2,9531120.0
2,9531380.0
2,9532220.0
2,9533430.0
2,9533150.0
2,9532930.0
2,9534180.0
2,9534010.0
2,9533350.0
2,9533480.0
2,9532910.0
2,9532090.0
2,9532560.0
2,9533210.0
2,9532730.0
2,9532200.0
2,9531800.0
2,9532040.0
2,9531810.0
2,9531940.0
2,9532620.0
2,9532030.0
2,9531360.0
2,9532200.0
2,9533420.0
2,9532890.0
2,9532700.0
2,9534890.0
2,9535060.0
2,9535090.0
2,9537410.0
2,9539710.0
2,9540100.0
2,9541830.0
2,9543080.0
2,9543520.0
2,9544220.0
2,9545100.0
2,9546350.0
2,9546540.0
2,9546100.0
2,9547930.0
2,9548480.0
2,9547760.0
2,9548040.0
2,9548070.0
2,9547600.0
2,9547980.0
2,9547250.0
2,9546660.0
2,9546210.0
2,9545140.0
2,9544640.0
2,9543200.0
2,9541940.0
2,9541000.0
2,9539550.0
2,9538430.0
2,9537410.0
2,9536280.0
2,9535750.0
2,9534680.0
2,9533550.0
2,9532970.0
2,9532420.0
2,9531300.0
2,9530200.0
2,9530120.0
2,9530620.0
2,9529500.0
2,9528900.0
2,9529570.0
2,9529330.0
2,9528500.0
2,9529420.0
2,9530070.0
2,9529530.0
2,9529660.0
2,9529960.0
2,9529800.0
2,9531540.0
2,9532590.0
2,9532920.0
2,9534770.0
2,9536280.0
2,9536250.0
2,9537340.0
2,9538300.0
2,9538460.0
2,9539330.0
2,9540350.0
2,9540480.0
2,9540670.0
2,9540550.0
2,9540800.0
2,9540980.0
2,9539540.0
2,9538460.0
2,9538820.0
2,9538220.0
2,9537910.0
2,9537380.0
2,9536110.0
2,9535330.0
2,9534990.0
2,9533560.0
2,9533020.0
2,9532650.0
2,9530980.0
2,9530580.0
2,9531260.0
2,9531420.0
2,9530310.0
2,9530900.0
2,9530230.0
2,9529240.0
2,9530190.0
2,9530660.0
2,9529490.0
2,9530000.0
2,9530910.0
2,9530430.0
2,9529940.0
2,9531250.0
2,9530320.0
2,9530150.0
2,9531480.0
2,9530430.0
2,9529820.0
2,9529670.0
2,9529520.0
2,9529740.0
2,9529560.0
2,9529550.0
2,9529340.0
2,9528520.0
2,9528810.0
2,9528710.0
2,9527620.0
2,9527540.0
2,9527260.0
2,9526440.0
2,9526410.0
2,9526670.0
2,9526510.0
2,9526810.0
2,9525950.0
2,9525700.0
2,9525050.0
2,9525280.0
2,9525500.0
2,9524690.0
2,9524680.0
2,9524480.0
2,9524510.0
2,9525570.0
2,9525440.0
2,9524140.0
2,9524520.0
2,9526100.0
2,9525340.0
2,9524750.0
2,9524760.0
2,9523830.0
2,9523600.0
2,9523890.0
2,9524110.0
2,9523220.0
2,9523190.0
2,9522760.0
2,9523140.0
2,9523920.0
2,9522590.0
2,9521130.0
2,9522170.0
2,9521130.0
2,9518990.0
2,9519960.0
2,9520930.0
2,9520260.0
2,9518960.0
2,9518460.0
2,9518840.0
2,9518470.0
2,9517580.0
2,9517670.0
2,9517850.0
2,9517830.0
2,9517870.0
2,9518420.0
2,9517980.0
2,9517550.0
2,9518620.0
2,9518620.0
2,9517530.0
2,9516970.0
2,9517080.0
2,9518320.0
2,9518530.0
2,9517340.0
2,9517660.0
2,9518860.0
2,9519070.0
2,9519030.0
2,9519070.0
2,9518600.0
2,9518570.0
2,9519850.0
2,9520710.0
2,9520040.0
2,9519420.0
2,9519360.0
2,9518690.0
2,9518700.0
2,9520300.0
2,9520220.0
2,9518830.0
2,9519510.0
2,9520580.0
2,9520950.0
2,9520430.0
2,9519870.0
2,9520640.0
2,9520640.0
2,9520060.0
2,9521630.0
2,9521610.0
2,9520790.0
2,9519930.0
2,9520700.0
2,9521600.0
2,9519750.0
2,9519950.0
2,9520390.0
2,9520260.0
2,9519910.0
2,9519510.0
2,9519760.0
2,9521180.0
2,9522580.0
2,9522040.0
2,9521920.0
2,9521990.0
2,9522590.0
2,9523020.0
2,9523170.0
2,9523700.0
2,9523600.0
2,9523210.0
2,9523160.0
2,9522550.0
2,9522580.0
2,9522900.0
2,9522470.0
2,9521190.0
2,9522290.0
2,9521690.0
2,9521460.0
2,9522430.0
2,9522040.0
2,9521530.0
2,9521320.0
2,9520260.0
2,9520060.0
2,9520140.0
2,9519310.0
2,9518870.0
2,9518990.0
2,9518600.0
2,9517960.0
2,9518230.0
2,9518550.0
2,9517490.0
2,9517300.0
2,9517500.0
2,9517750.0
2,9517250.0
2,9516910.0
2,9517190.0
2,9518320.0
2,9517810.0
2,9516540.0
2,9516860.0
2,9517610.0
2,9517650.0
2,9516750.0
2,9517020.0
2,9517430.0
2,9516760.0
2,9517350.0
2,9518760.0
2,9517900.0
2,9517630.0
2,9518410.0
2,9517300.0
2,9517180.0
2,9517870.0
2,9518310.0
2,9517350.0
2,9517200.0
2,9517640.0
2,9517420.0
2,9518190.0
2,9517300.0
2,9516840.0
2,9518320.0
2,9518360.0
2,9517500.0
2,9517860.0
2,9517360.0
2,9517980.0
2,9517730.0
2,9517840.0
2,9518090.0
2,9517460.0
2,9517180.0
2,9518290.0
2,9518510.0
2,9518200.0
2,9517790.0
2,9518540.0
2,9519270.0
2,9519330.0
2,9518250.0
2,9517530.0
2,9518640.0
2,9519430.0
2,9518620.0
2,9519090.0
2,9518930.0
2,9518710.0
2,9520520.0
2,9520710.0
2,9519980.0
2,9521160.0
2,9521100.0
2,9519640.0
2,9520510.0
2,9519820.0
2,9518940.0
2,9519680.0
2,9520120.0
2,9519210.0
2,9519520.0
2,9520450.0
2,9520040.0
2,9520030.0
2,9518730.0
2,9518230.0
2,9519360.0
2,9519960.0
2,9518830.0
2,9519650.0
2,9520510.0
2,9519260.0
2,9519090.0
2,9518910.0
2,9518200.0
2,9518570.0
2,9518600.0
2,9519320.0
2,9519770.0
2,9518800.0
2,9518760.0
2,9519300.0
2,9518480.0
2,9519010.0
2,9519330.0
2,9518430.0
2,9518380.0
2,9519510.0
2,9519540.0
2,9518110.0
2,9518700.0
2,9518340.0
2,9518540.0
2,9519590.0
2,9518730.0
2,9518250.0
2,9518290.0
2,9518190.0
2,9518190.0
2,9518340.0
2,9517790.0
2,9517910.0
2,9517960.0
2,9518260.0
2,9518340.0
2,9516980.0
2,9516500.0
2,9517350.0
2,9517590.0
2,9518140.0
2,9518520.0
2,9517940.0
2,9517520.0
2,9517780.0
2,9516940.0
2,9516690.0
2,9516740.0
2,9516990.0
2,9516660.0
2,9516410.0
2,9517650.0
2,9518410.0
2,9517910.0
2,9517720.0
2,9518440.0
2,9517300.0
2,9516800.0
2,9518080.0
2,9517320.0
2,9517180.0
2,9517570.0
2,9517030.0
2,9517270.0
2,9518050.0
2,9518110.0
2,9517630.0
2,9517600.0
2,9517870.0
2,9518250.0
2,9517710.0
2,9518430.0
2,9518780.0
2,9517570.0
2,9518000.0
2,9518380.0
2,9518260.0
2,9518710.0
2,9519470.0
2,9518770.0
2,9518850.0
2,9519000.0
2,9518910.0
2,9520610.0
2,9520580.0
2,9519570.0
2,9519720.0
2,9520280.0
2,9519200.0
2,9518500.0
2,9519240.0
2,9520720.0
2,9520520.0
2,9520430.0
2,9520780.0
2,9520560.0
2,9520390.0
2,9520430.0
2,9520950.0
2,9519980.0
2,9520530.0
2,9521200.0
2,9519890.0
2,9519520.0
2,9520220.0
2,9519450.0
2,9518530.0
2,9519200.0
2,9519330.0
2,9518520.0
2,9518990.0
2,9519500.0
2,9519230.0
2,9519240.0
2,9518840.0
2,9519050.0
2,9518620.0
2,9518640.0
2,9519690.0
2,9518280.0
2,9517990.0
2,9519640.0
2,9519520.0
2,9517880.0
2,9518120.0
2,9518510.0
2,9518530.0
2,9518780.0
2,9519020.0
2,9518420.0
2,9518160.0
2,9518230.0
2,9518470.0
2,9518990.0
2,9518910.0
2,9519480.0
2,9519430.0
2,9519120.0
2,9518930.0
2,9519500.0
2,9518820.0
2,9518270.0
2,9518390.0
2,9518260.0
2,9518630.0
2,9518380.0
2,9517740.0
2,9518160.0
2,9518790.0
2,9520030.0
2,9519930.0
2,9518990.0
2,9519700.0
2,9519240.0
2,9519550.0
2,9519820.0
2,9519360.0
2,9518500.0
2,9517620.0
2,9518340.0
2,9518370.0
2,9517340.0
2,9517920.0
2,9517810.0
2,9517420.0
2,9517730.0
2,9517660.0
2,9518030.0
2,9518070.0
2,9517810.0
2,9518680.0
2,9519290.0
2,9518370.0
2,9518230.0
2,9519200.0
2,9519740.0
2,9519160.0
2,9518940.0
2,9518840.0
2,9518760.0
2,9518270.0
2,9518690.0
2,9518200.0
2,9518650.0
2,9519750.0
0,9698780.0
0,9698540.0
0,9697190.0
0,9697450.0
0,9698430.0
0,9697930.0
0,9697340.0
0,9715450.0
0,9829490.0
0,9966100.0
0,10040900.0
0,10082500.0
0,10064300.0
0,10048900.0
0,10022600.0
0,9975970.0
0,9932380.0
0,9928730.0
0,9869360.0
0,9743730.0
0,9601200.0
0,9510660.0
0,9484760.0
0,9506420.0
0,9519870.0
0,9429810.0
0,9299020.0
0,9272940.0
0,9308260.0
0,9351500.0
0,9384920.0
0,9406440.0
0,9436830.0
0,9479550.0
0,9532260.0
0,9578420.0
0,9604180.0
0,9639300.0
0,9687290.0
0,9753630.0
0,9836420.0
0,9929120.0
0,10024700.0
0,10132600.0
0,10237700.0
0,10326300.0
0,10362600.0
0,10322300.0
0,10265600.0
0,10197500.0
0,10098400.0
0,9964830.0
0,9824730.0
0,9711930.0
0,9626330.0
0,9584110.0
0,9567220.0
0,9565320.0
0,9567310.0
0,9563700.0
0,9571850.0
0,9589040.0
0,9606170.0
0,9610470.0
0,9598070.0
0,9585480.0
0,9552280.0
0,9517330.0
0,9488480.0
0,9479760.0
0,9482240.0
0,9476770.0
0,9465990.0
0,9465760.0
0,9478800.0
0,9483000.0
0,9460430.0
0,9439730.0
0,9433030.0
0,9431350.0
0,9449320.0
0,9473420.0
0,9499950.0
0,9537270.0
0,9573160.0
0,9604640.0
0,9634770.0
0,9652730.0
0,9668240.0
0,9688660.0
0,9699010.0
0,9707570.0
0,9721770.0
0,9736660.0
0,9753070.0
0,9762900.0
0,9754040.0
0,9736050.0
0,9713110.0
0,9695640.0
0,9681650.0
0,9687000.0
0,9692660.0
0,9694700.0
0,9682910.0
0,9666050.0
0,9648730.0
0,9642930.0
0,9657400.0
0,9675650.0
0,9676100.0
0,9665310.0
0,9654410.0
0,9645810.0
0,9646360.0
0,9648820.0
0,9641710.0
0,9631280.0
0,9621490.0
0,9603630.0
0,9591110.0
0,9589070.0
0,9586650.0
0,9583950.0
0,9583810.0
0,9584180.0
0,9582450.0
0,9584040.0
0,9585260.0
0,9582340.0
0,9578290.0
0,9573310.0
0,9566310.0
0,9561120.0
0,9554980.0
0,9550990.0
0,9547120.0
0,9541630.0
0,9535500.0
0,9525880.0
0,9515710.0
0,9506590.0
0,9494910.0
0,9485600.0
0,9479420.0
0,9475700.0
0,9472990.0
0,9470170.0
0,9467490.0
0,9466280.0
0,9466640.0
0,9467980.0
0,9473460.0
0,9476850.0
0,9478340.0
0,9479790.0
0,9483280.0
0,9487260.0
0,9486450.0
0,9484680.0
0,9486940.0
0,9489400.0
0,9491870.0
0,9494450.0
0,9498110.0
0,9504440.0
0,9512190.0
0,9518930.0
0,9523320.0
0,9530090.0
0,9540360.0
0,9548570.0
0,9556660.0
0,9562860.0
0,9564380.0
0,9562410.0
0,9559790.0
0,9556950.0
0,9555110.0
0,9555840.0
0,9557590.0
0,9557620.0
0,9555950.0
0,9554380.0
0,9551050.0
0,9544580.0
0,9536150.0
0,9526970.0
0,9516120.0
0,9504840.0
0,9497210.0
0,9494420.0
0,9492460.0
0,9493510.0
0,9498480.0
0,9503600.0
0,9509650.0
0,9515950.0
0,9519760.0
0,9522800.0
0,9524350.0
0,9524730.0
0,9525540.0
0,9525830.0
0,9525970.0
0,9526540.0
0,9527780.0
0,9528020.0
0,9526330.0
0,9524890.0
0,9524770.0
0,9525330.0
0,9525090.0
0,9524550.0
0,9523890.0
0,9523650.0
0,9523180.0
0,9520980.0
0,9518360.0
0,9518930.0
0,9518250.0
0,9516330.0
0,9516940.0
0,9517270.0
0,9516420.0
0,9516040.0
0,9516000.0
0,9515400.0
0,9513100.0
0,9513080.0
0,9514260.0
0,9513780.0
0,9514700.0
0,9517470.0
0,9520180.0
0,9522920.0
0,9525520.0
0,9527660.0
0,9528920.0
0,9529800.0
0,9531760.0
0,9533020.0
0,9534310.0
0,9536100.0
0,9536100.0
0,9537080.0
0,9540580.0
0,9544220.0
0,9546580.0
0,9550780.0
0,9554960.0
0,9557470.0
0,9559680.0
0,9561790.0
0,9561550.0
0,9562170.0
0,9563680.0
0,9562900.0
0,9563230.0
0,9564870.0
0,9566110.0
0,9567470.0
0,9568930.0
0,9569900.0
0,9569930.0
0,9571360.0
0,9571900.0
0,9571280.0
0,9571590.0
0,9571550.0
0,9572610.0
0,9574600.0
0,9576720.0
0,9578080.0
0,9578770.0
0,9579710.0
0,9582020.0
0,9585620.0
0,9589990.0
0,9593780.0
0,9597270.0
0,9599060.0
0,9598530.0
0,9598710.0
0,9600890.0
0,9602350.0
0,9604170.0
0,9606370.0
0,9606690.0
0,9605680.0
0,9605600.0
0,9604920.0
0,9603820.0
0,9604630.0
0,9606280.0
0,9606890.0
0,9606680.0
0,9606960.0
0,9606240.0
0,9603700.0
0,9602470.0
0,9603300.0
0,9603490.0
0,9603800.0
0,9604480.0
0,9605560.0
0,9607290.0
0,9606140.0
0,9604720.0
0,9604760.0
0,9604040.0
0,9603320.0
0,9603300.0
0,9603840.0
0,9603520.0
0,9603180.0
0,9603270.0
0,9602700.0
0,9601180.0
0,9600960.0
0,9601950.0
0,9601160.0
0,9599820.0
0,9599810.0
0,9601850.0
0,9603610.0
0,9603260.0
0,9604140.0
0,9605840.0
0,9606280.0
0,9606080.0
0,9604860.0
0,9604340.0
0,9604720.0
0,9603880.0
0,9602540.0
0,9601920.0
0,9602530.0
0,9603580.0
0,9603290.0
0,9602570.0
0,9603070.0
0,9602780.0
0,9600730.0
0,9599530.0
0,9598510.0
0,9596500.0
0,9594450.0
0,9591800.0
0,9589760.0
0,9589850.0
0,9588770.0
0,9587540.0
0,9587840.0
0,9585720.0
0,9583900.0
0,9583200.0
0,9581400.0
0,9580000.0
0,9578960.0
0,9578140.0
0,9578070.0
0,9577400.0
0,9575590.0
0,9575740.0
0,9576830.0
0,9575410.0
0,9574880.0
0,9574310.0
0,9572750.0
0,9572920.0
0,9572240.0
0,9569920.0
0,9568890.0
0,9568890.0
0,9567650.0
0,9566030.0
0,9565580.0
0,9564430.0
0,9562510.0
0,9561550.0
0,9560940.0
0,9560050.0
0,9560310.0
0,9560550.0
0,9559900.0
0,9561080.0
0,9560860.0
0,9559700.0
0,9559700.0
0,9559270.0
0,9558630.0
0,9558200.0
0,9557240.0
0,9556800.0
0,9557750.0
0,9557000.0
0,9555410.0
0,9554510.0
0,9554080.0
0,9553880.0
0,9552740.0
0,9550820.0
0,9550000.0
0,9549900.0
0,9549490.0
0,9547950.0
0,9547800.0
0,9548270.0
0,9547490.0
0,9546900.0
0,9547450.0
0,9547540.0
0,9547940.0
0,9548090.0
0,9547640.0
0,9547170.0
0,9547200.0
0,9547580.0
0,9547530.0
0,9547200.0
0,9548110.0
0,9548860.0
0,9548850.0
0,9548760.0
0,9548660.0
0,9547920.0
0,9547460.0
0,9547810.0
0,9548310.0
0,9547570.0
0,9547560.0
0,9548880.0
0,9548810.0
0,9547370.0
0,9547180.0
0,9547160.0
0,9547430.0
0,9547260.0
0,9546830.0
0,9547770.0
0,9548400.0
0,9548290.0
0,9549040.0
0,9549730.0
0,9550630.0
0,9551480.0
0,9551060.0
0,9551770.0
0,9552110.0
0,9552060.0
0,9553300.0
0,9554460.0
0,9554150.0
0,9554350.0
0,9554210.0
0,9554760.0
0,9555690.0
0,9555890.0
0,9556330.0
0,9558290.0
0,9559220.0
0,9559190.0
0,9560130.0
0,9560660.0
0,9561340.0
0,9561640.0
0,9562300.0
0,9563640.0
0,9563980.0
0,9564440.0
0,9565500.0
0,9566040.0
0,9565720.0
0,9566400.0
0,9567630.0
0,9568440.0
0,9567960.0
0,9567980.0
0,9569950.0
0,9568990.0
0,9569120.0
0,9569940.0
0,9570500.0
0,9571780.0
0,9572240.0
0,9572920.0
0,9572840.0
0,9572340.0
0,9573100.0
0,9574580.0
0,9575310.0
0,9574420.0
0,9574860.0
0,9576650.0
0,9577270.0
0,9576970.0
0,9577540.0
0,9578270.0
0,9577630.0
0,9578420.0
0,9580020.0
0,9580880.0
0,9580580.0
0,9581180.0
0,9582120.0
0,9582650.0
0,9583690.0
0,9584170.0
0,9583860.0
0,9584490.0
0,9585640.0
0,9586290.0
0,9586900.0
0,9587150.0
0,9586770.0
0,9587780.0
0,9588830.0
0,9588210.0
0,9588660.0
0,9590400.0
0,9590320.0
0,9589020.0
0,9590100.0
0,9590550.0
0,9590350.0
0,9590340.0
0,9590260.0
0,9590780.0
0,9591410.0
0,9591330.0
0,9590440.0
0,9590880.0
0,9591900.0
0,9590880.0
0,9590730.0
0,9591020.0
0,9590900.0
0,9589840.0
0,9589160.0
0,9590330.0
0,9590110.0
0,9589400.0
0,9590100.0
0,9589610.0
0,9589370.0
0,9590340.0
0,9590510.0
0,9589480.0
0,9589230.0
0,9589490.0
0,9588880.0
0,9588610.0
0,9587690.0
0,9587470.0
0,9588180.0
0,9588010.0
0,9587630.0
0,9587790.0
0,9587130.0
0,9585920.0
0,9586210.0
0,9586050.0
0,9585160.0
0,9584660.0
0,9584180.0
0,9584610.0
0,9584460.0
0,9583620.0
0,9583850.0
0,9583740.0
0,9581860.0
0,9581700.0
0,9581090.0
0,9579480.0
0,9579470.0
0,9579420.0
0,9579070.0
0,9577540.0
0,9576830.0
0,9577550.0
0,9577060.0
0,9576000.0
0,9575770.0
0,9574350.0
0,9573500.0
0,9573840.0
0,9572910.0
0,9572270.0
0,9571390.0
0,9571530.0
0,9571410.0
0,9571150.0
0,9569890.0
0,9569650.0
0,9569900.0
0,9568860.0
0,9568410.0
0,9568260.0
0,9568280.0
0,9568420.0
0,9568670.0
0,9568470.0
0,9567580.0
0,9566300.0
0,9566100.0
0,9565920.0
0,9566330.0
0,9565830.0
0,9564620.0
0,9564250.0
0,9564380.0
0,9564380.0
0,9563670.0
0,9563110.0
0,9563420.0
0,9563310.0
0,9562060.0
0,9561680.0
0,9561600.0
0,9561090.0
0,9560980.0
0,9561830.0
0,9562020.0
0,9560570.0
0,9560160.0
0,9561060.0
0,9560210.0
0,9560080.0
0,9560670.0
0,9560500.0
0,8722640.0
0,8721700.0
0,8722140.0
0,8723270.0
0,8723580.0
0,8723660.0
0,8724110.0
0,8723930.0
0,8723480.0
0,8723900.0
0,8723720.0
0,8723700.0
0,8725250.0
0,8727810.0
0,8732650.0
0,8739210.0
0,8750660.0
0,8762990.0
0,8769540.0
0,8771660.0
0,8780270.0
0,8826720.0
0,8876420.0
0,8876830.0
0,8798880.0
0,8719820.0
0,8687970.0
0,8676680.0
0,8664660.0
0,8672440.0
0,8701010.0
0,8744980.0
0,8801740.0
0,8841220.0
0,8854410.0
0,8833520.0
0,8777660.0
0,8718120.0
0,8681170.0
0,8659840.0
0,8647670.0
0,8655460.0
0,8676800.0
0,8710350.0
0,8739480.0
0,8759320.0
0,8773670.0
0,8782530.0
0,8777580.0
0,8760610.0
0,8741450.0
0,8725310.0
0,8713310.0
0,8710440.0
0,8711550.0
0,8712950.0
0,8714070.0
0,8715680.0
0,8719950.0
0,8722200.0
0,8730550.0
0,8735740.0
0,8742890.0
0,8745230.0
0,8746250.0
0,8746670.0
0,8748600.0
0,8752000.0
0,8751460.0
0,8748260.0
0,8743520.0
0,8737880.0
0,8732610.0
0,8731190.0
0,8732790.0
0,8734590.0
0,8736040.0
0,8733870.0
0,8729780.0
0,8729120.0
0,8732430.0
0,8739250.0
0,8749480.0
0,8762270.0
0,8774470.0
0,8783970.0
0,8790660.0
0,8797890.0
0,8804360.0
0,8808090.0
0,8809070.0
0,8809590.0
0,8808910.0
0,8807750.0
0,8808170.0
0,8809800.0
0,8811270.0
0,8813300.0
0,8814230.0
0,8815230.0
0,8817960.0
0,8817770.0
0,8813990.0
0,8809230.0
0,8803250.0
0,8796050.0
0,8788360.0
0,8782000.0
0,8779000.0
0,8777540.0
0,8776380.0
0,8775830.0
0,8775110.0
0,8774780.0
0,8773510.0
0,8771280.0
0,8767930.0
0,8764320.0
0,8763290.0
0,8762870.0
0,8762880.0
0,8763590.0
0,8763980.0
0,8764650.0
0,8766410.0
0,8766060.0
0,8766250.0
0,8767620.0
0,8766470.0
0,8765050.0
0,8765950.0
0,8766120.0
0,8765730.0
0,8767840.0
0,8769130.0
0,8770320.0
0,8773740.0
0,8778040.0
0,8781710.0
0,8785480.0
0,8790350.0
0,8793640.0
0,8795150.0
0,8798520.0
0,8802160.0
0,8804620.0
0,8806590.0
0,8808250.0
0,8810790.0
0,8812800.0
0,8813510.0
0,8814780.0
0,8815020.0
0,8813460.0
0,8812270.0
0,8810760.0
0,8808910.0
0,8808080.0
0,8806830.0
0,8804610.0
0,8804040.0
0,8802980.0
0,8799140.0
0,8796070.0
0,8794790.0
0,8793360.0
0,8790490.0
0,8788550.0
0,8787910.0
0,8787640.0
0,8788190.0
0,8788440.0
0,8788120.0
0,8788430.0
0,8788290.0
0,8787240.0
0,8787550.0
0,8787870.0
0,8787790.0
0,8788670.0
0,8789240.0
0,8789220.0
0,8789890.0
0,8791310.0
0,8790340.0
0,8789400.0
0,8791050.0
0,8791350.0
0,8791150.0
0,8792470.0
0,8793380.0
0,8794020.0
0,8794960.0
0,8794730.0
0,8793930.0
0,8794140.0
0,8794500.0
0,8794710.0
0,8795560.0
0,8796860.0
0,8797280.0
0,8797180.0
0,8798400.0
0,8799430.0
0,8798760.0
0,8798990.0
0,8799390.0
0,8799020.0
0,8800180.0
0,8801600.0
0,8803020.0
0,8803260.0
0,8802530.0
0,8802100.0
0,8801870.0
0,8801530.0
0,8799890.0
0,8799100.0
0,8799950.0
0,8799090.0
0,8797730.0
0,8796900.0
0,8795990.0
0,8795100.0
0,8793900.0
0,8793220.0
1,8797150.0
1,8798090.0
1,8801620.0
1,8804520.0
1,8808320.0
1,8812820.0
1,8813070.0
1,8810820.0
1,8810480.0
1,8811410.0
1,8810960.0
1,8809870.0
1,8809630.0
1,8810460.0
1,8813660.0
1,8820500.0
1,8829960.0
1,8843490.0
1,8861710.0
1,8880080.0
1,8898420.0
1,8916290.0
1,8927900.0
1,8935600.0
1,8941990.0
1,8947020.0
1,8949980.0
1,8953240.0
1,8957200.0
1,8961240.0
1,8971760.0
1,8981640.0
1,8987890.0
1,8991630.0
1,8990740.0
1,8990110.0
1,8989840.0
1,8987970.0
1,8981850.0
1,8970860.0
1,8958040.0
1,8945210.0
1,8932670.0
1,8920520.0
1,8909980.0
1,8901480.0
1,8894170.0
1,8889300.0
1,8885650.0
1,8882450.0
1,8878690.0
1,8872890.0
1,8865540.0
1,8857970.0
1,8848590.0
1,8839150.0
1,8830680.0
1,8823160.0
1,8816890.0
1,8814390.0
1,8814350.0
1,8818670.0
1,8826510.0
1,8834100.0
1,8848570.0
1,8871060.0
1,8892050.0
1,8905450.0
1,8912400.0
1,8915240.0
1,8916740.0
1,8917820.0
1,8911590.0
1,8901120.0
1,8890930.0
1,8882600.0
1,8879170.0
1,8878750.0
1,8876300.0
1,8869890.0
1,8861120.0
1,8851410.0
1,8839260.0
1,8825480.0
1,8812940.0
1,8800950.0
1,8791870.0
1,8788510.0
1,8787740.0
1,8782910.0
1,8773500.0
1,8762780.0
1,8755700.0
1,8754190.0
1,8751650.0
1,8746480.0
1,8743840.0
1,8741900.0
1,8738120.0
1,8732720.0
1,8728060.0
1,8723290.0
1,8719700.0
1,8718760.0
1,8719930.0
1,8720240.0
1,8719660.0
1,8719700.0
1,8718540.0
1,8716470.0
1,8716020.0
1,8715570.0
1,8715690.0
1,8717400.0
1,8720760.0
1,8722470.0
1,8723510.0
1,8724670.0
1,8724980.0
1,8725070.0
1,8724280.0
1,8721840.0
1,8719280.0
1,8718460.0
1,8717920.0
1,8717250.0
1,8714840.0
1,8713990.0
1,8715040.0
1,8714730.0
1,8712870.0
1,8712270.0
1,8712400.0
1,8711950.0
1,8712060.0
1,8713840.0
1,8715320.0
1,8717740.0
1,8719030.0
1,8720110.0
1,8721740.0
1,8723370.0
1,8724440.0
1,8724360.0
1,8724090.0
1,8724000.0
1,8724240.0
1,8723810.0
1,8724860.0
1,8726280.0
1,8725900.0
1,8726420.0
1,8726820.0
1,8726740.0
1,8728770.0
1,8730050.0
1,8729320.0
1,8728560.0
1,8727960.0
1,8727480.0
1,8727370.0
1,8726300.0
1,8724850.0
1,8724470.0
1,8723400.0
1,8722480.0
1,8722540.0
1,8722330.0
1,8721950.0
1,8720920.0
1,8719440.0
1,8718780.0
1,8717710.0
1,8716560.0
1,8716350.0
1,8715520.0
1,8714130.0
1,8713150.0
1,8712730.0
1,8712910.0
1,8712220.0
1,8711290.0
1,8711730.0
1,8710680.0
1,8709460.0
1,8709330.0
1,8708760.0
1,8708210.0
1,8708090.0
1,8708060.0
1,8708500.0
1,8707830.0
1,8707030.0
1,8707160.0
1,8706850.0
1,8706260.0
1,8707810.0
1,8707830.0
1,8707110.0
1,8707550.0
1,8708840.0
1,8708830.0
1,8709320.0
1,8710980.0
1,8711940.0
1,8711970.0
1,8712120.0
1,8714270.0
1,8715720.0
1,8715420.0
1,8717270.0
1,8718820.0
1,8718790.0
1,8720210.0
1,8721910.0
1,8721940.0
1,8722770.0
1,8723660.0
1,8724440.0
1,8725580.0
1,8725830.0
1,8726360.0
1,8727820.0
1,8728440.0
1,8728170.0
1,8729210.0
1,8730860.0
1,8731360.0
1,8732000.0
1,8733610.0
1,8733460.0
1,8733020.0
1,8733720.0
1,8734080.0
1,8734390.0
1,8734680.0
1,8734920.0
1,8735920.0
1,8736800.0
1,8737370.0
1,8737980.0
1,8738500.0
1,8739910.0
1,8741710.0
1,8742520.0
1,8743300.0
1,8745160.0
1,8746590.0
1,8746440.0
1,8748900.0
1,8751790.0
1,8751640.0
1,8752740.0
1,8755500.0
1,8756980.0
1,8757720.0
1,8758860.0
1,8759700.0
1,8760490.0
1,8760000.0
1,8761450.0
1,8764880.0
1,8766700.0
1,8766390.0
1,8768250.0
1,8771850.0
1,8774040.0
1,8776190.0
1,8778780.0
1,8780420.0
1,8781030.0
1,8781800.0
1,8782190.0
1,8782860.0
1,8780050.0
1,8777570.0
1,8779770.0
1,8781550.0
1,8780940.0
1,8781750.0
1,8784530.0
1,8786900.0
1,8785580.0
1,8783800.0
1,8782710.0
1,8779770.0
1,8777270.0
1,8777200.0
1,8778330.0
1,8781540.0
1,8784450.0
1,8785600.0
1,8786700.0
1,8786210.0
1,8784110.0
1,8780920.0
1,8778030.0
1,8775820.0
1,8774920.0
1,8774950.0
1,8774510.0
1,8773460.0
1,8773160.0
1,8773190.0
1,8774690.0
1,8775260.0
1,8774000.0
1,8773950.0
1,8772880.0
1,8770900.0
1,8769720.0
1,8768240.0
1,8768080.0
1,8768140.0
1,8767290.0
1,8767510.0
1,8768070.0
1,8766470.0
1,8765410.0
1,8765030.0
1,8763410.0
1,8762360.0
1,8762010.0
1,8760690.0
1,8760010.0
1,8760270.0
1,8760570.0
1,8760950.0
1,8759660.0
1,8757440.0
1,8756890.0
1,8755640.0
1,8754150.0
1,8752850.0
1,8750660.0
1,8749290.0
1,8748830.0
1,8749080.0
1,8748560.0
1,8747410.0
1,8747390.0
1,8746740.0
1,8745210.0
1,8744160.0
1,8742920.0
1,8742150.0
1,8742420.0
1,8743600.0
1,8743000.0
1,8742440.0
1,8743540.0
1,8742640.0
1,8741500.0
1,8741290.0
1,8739820.0
1,8739130.0
1,8739100.0
1,8738260.0
1,8738600.0
1,8739720.0
1,8740270.0
1,8740660.0
1,8740050.0
1,8739700.0
1,8739880.0
1,8740640.0
1,8740970.0
1,8740050.0
1,8740440.0
1,8740950.0
1,8741310.0
1,8741940.0
1,8741250.0
1,8741470.0
1,8741750.0
1,8741950.0
1,8742870.0
1,8743220.0
1,8742490.0
1,8742460.0
1,8743410.0
1,8745420.0
1,8745320.0
1,8745080.0
1,8746340.0
1,8745840.0
1,8745010.0
1,8744730.0
1,8744820.0
1,8745080.0
1,8745000.0
1,8745350.0
1,8746290.0
1,8746180.0
1,8746140.0
1,8746120.0
1,8745700.0
1,8745740.0
1,8745670.0
1,8744910.0
1,8745700.0
1,8745670.0
1,8744330.0
1,8743800.0
1,8744560.0
1,8743970.0
1,8744050.0
1,8744920.0
1,8744520.0
1,8744400.0
1,8743750.0
1,8743090.0
1,8742970.0
1,8743490.0
1,8743630.0
1,8742930.0
1,8742250.0
1,8742910.0
1,8743210.0
1,8742940.0
1,8743120.0
1,8742990.0
1,8743410.0
1,8743620.0
1,8742820.0
1,8742840.0
1,8742670.0
1,8743140.0
1,8744340.0
1,8744250.0
1,8744640.0
1,8744830.0
1,8744780.0
1,8744890.0
1,8745300.0
1,8745080.0
1,8745530.0
1,8745930.0
1,8745580.0
1,8745420.0
1,8745970.0
1,8746270.0
1,8745640.0
1,8746180.0
1,8746230.0
1,8745920.0
1,8745920.0
1,8745720.0
1,8744950.0
1,8745360.0
1,8746030.0
1,8745520.0
1,8745790.0
1,8746620.0
1,8745630.0
1,8745690.0
1,8747920.0
1,8748350.0
1,8747480.0
1,8748350.0
1,8749580.0
1,8749450.0
1,8749730.0
1,8750300.0
1,8751810.0
1,8751690.0
1,8752000.0
1,8753850.0
1,8753700.0
1,8753030.0
1,8754190.0
1,8755210.0
1,8755680.0
1,8756070.0
1,8756090.0
1,8756400.0
1,8758020.0
1,8757540.0
1,8756850.0
1,8758310.0
1,8759750.0
1,8759470.0
1,8759670.0
1,8760660.0
1,8761250.0
1,8762350.0
1,8763470.0
1,8764340.0
1,8763890.0
1,8764660.0
1,8766140.0
1,8766540.0
1,8765690.0
1,8765280.0
1,8766220.0
1,8766270.0
1,8766330.0
1,8766200.0
1,8765170.0
1,8766170.0
1,8767900.0
1,8767070.0
1,8766280.0
1,8766940.0
1,8767970.0
1,8768740.0
1,8768340.0
1,8768110.0
1,8768500.0
1,8768520.0
1,8769030.0
1,8768900.0
1,8768870.0
1,8769170.0
1,8769050.0
1,8768880.0
1,8768320.0
1,8769550.0
1,8769900.0
1,8768820.0
1,8768590.0
1,8769490.0
1,8769080.0
1,8767960.0
1,8769120.0
1,8770100.0
1,8770180.0
1,8770620.0
1,8770940.0
1,8769920.0
1,8769140.0
1,8769470.0
1,8769160.0
1,8768370.0
1,8768280.0
1,8769070.0
1,8768570.0
1,8767790.0
1,8768160.0
1,8767050.0
1,8766950.0
1,8768010.0
1,8767640.0
1,8766000.0
1,8766170.0
1,8765990.0
1,8764910.0
1,8765200.0
1,8764740.0
1,8763670.0
1,8763670.0
1,8762390.0
1,8761760.0
1,8761930.0
1,8760910.0
1,8760210.0
1,8760040.0
1,8759150.0
1,8758780.0
1,8758690.0
1,8758650.0
1,8758650.0
1,8758340.0
1,8757290.0
1,8756800.0
1,8756990.0
1,8757440.0
1,8756960.0
1,8755870.0
1,8755740.0
1,8755910.0
1,8756130.0
1,8754730.0
1,8754390.0
1,8755400.0
1,8754100.0
1,8753360.0
1,8753630.0
1,8753470.0
1,8753560.0
1,8753050.0
1,8753170.0
1,8753520.0
1,8753210.0
1,8752860.0
1,8753260.0
1,8753670.0
1,8752550.0
1,8751720.0
1,8752320.0
1,8751820.0
1,8751030.0
1,8751200.0
1,8751450.0
1,8751300.0
1,8750260.0
1,8750030.0
1,8749420.0
1,8749040.0
1,8749950.0
1,8749710.0
